"{\n"
"   "availabilityRequest":{\n"
"      "viewName":"US ROPIS",\n"
"      "availabilityCriteria":{\n"
"         "itemNames":{\n"
"            "itemName":[\n"
"               "1050845022"\n"
"            ]\n"
"         },\n"
"         "facilityNames":{\n"
"            "facilityName":[\n"
"               "4194",\n"
"               "4168",\n"
"               "0982",\n"
"               "0836",\n"
"               "4327",\n"
"               "1071",\n"
"               "1969",\n"
"               "4338",\n"
"               "1917",\n"
"               "4169",\n"
"               "1944",\n"
"               "4109",\n"
"               "4119",\n"
"               "1812",\n"
"               "4307",\n"
"               "4392",\n"
"               "1650",\n"
"               "1282",\n"
"               "4072",\n"
"               "4076",\n"
"               "4092",\n"
"               "4277",\n"
"               "1084",\n"
"               "4400",\n"
"               "4248"\n"
"            ]\n"
"         }\n"
"      }\n"
"   }\n"
"}"
