1472550467	0	1472550490
1472550490	3	1472550491
1472550491	5	1472550495
1472550495	10	1472550504
1472550504	11	1472550505
1472550505	15	1472550515
1472550515	19	1472550516
1472550516	20	1472550524
1472550524	21	1472550525
1472550525	25	1472550535
1472550535	30	1472550556
1472550556	33	1472550557
1472550557	35	1472550565
1472550565	40	1472550575
1472550575	45	1472550585
1472550585	50	1472550606
1472550606	51	1472550607
1472550607	54	1472550616
1472550616	59	1472550625
1472550625	62	1472550626
1472550626	63	1472550636
1472550636	68	1472550644
1472550644	69	1472550645
1472550645	70	1472550646
1472550646	71	1472550655
1472550655	72	1472550656
1472550656	76	1472550665
1472550665	78	1472550666
1472550666	79	1472550676
1472550676	84	1472550685
1472550685	87	1472550686
1472550686	88	1472550695
1472550695	89	1472550696
1472550696	96	1472550704
1472550704	100	1472550705
1472550705	101	1472550714
1472550714	104	1472550727
1472550727	109	1472550728
1472550728	112	1472550734
1472550734	117	1472550739
1472550739	122	1472550744
1472550744	125	1472550749
1472550749	130	1472550759
1472550759	135	1472550769
1472550769	140	1472550779
1472550779	145	1472550789
1472550789	150	1472550799
1472550799	155	1472550809
1472550809	160	1472550829
1472550829	165	1472550838
1472550838	170	1472550847
1472550847	173	1472550848
1472550848	175	1472550858
1472550858	180	1472550868
1472550868	185	1472550879
1472550879	190	1472550889
1472550889	195	1472550899
1472550899	200	1472550938
1472550938	203	1472550945
1472550945	210	1472550954
1472550954	214	1472550955
1472550955	215	1472550964
1472550964	218	1472550965
1472550965	219	1472550966
1472550966	220	1472550974
1472550974	225	1472550984
1472550984	226	1472550985
1472550985	230	1472550994
1472550994	232	1472550995
1472550995	235	1472551008
1472551008	237	1472551015
1472551015	243	1472551016
1472551016	245	1472551025
1472551025	247	1472551026
1472551026	250	1472551046
1472551046	255	1472551054
1472551054	258	1472551055
1472551055	260	1472551066
1472551066	262	1472551067
1472551067	263	1472551068
1472551068	265	1472551074
1472551074	270	1472551086
1472551086	271	1472551088
1472551088	275	1472551094
1472551094	279	1472551095
1472551095	280	1472551118
1472551118	285	1472551127
1472551127	286	1472551129
1472551129	290	1472551135
1472551135	292	1472551136
1472551136	295	1472551145
1472551145	298	1472551146
1472551146	300	1472551168
1472551168	305	1472551174
1472551174	308	1472551175
1472551175	310	1472551184
1472551184	315	1472551194
1472551194	318	1472551196
1472551196	320	1472551205
1472551205	322	1472551206
1472551206	325	1472551215
1472551215	330	1472551225
1472551225	335	1472551235
1472551235	337	1472551236
1472551236	340	1472551244
1472551244	344	1472551245
1472551245	345	1472551255
1472551255	348	1472551256
1472551256	350	1472553087
1472553087	349	1472553094
1472553094	348	1472553095
1472553095	347	1472553099
1472553099	346	1472553139
1472553139	343	1472553147
1472553147	341	1472553150
1472553150	340	1472553153
1472553153	339	1472553154
1472553154	338	1472553159
1472553159	334	1472553160
1472553160	333	1472553165
1472553165	332	1472553169
1472553169	323	1472553170
1472553170	315	1472553171
1472553171	308	1472553172
1472553172	302	1472553173
1472553173	300	1472553196
1472553196	298	1472553197
1472553197	297	1472553201
1472553201	295	1472553202
1472553202	294	1472553203
1472553203	293	1472553204
1472553204	292	1472553205
1472553205	291	1472553208
1472553208	290	1472553209
1472553209	288	1472553220
1472553220	285	1472553222
1472553222	284	1472553228
1472553228	281	1472553230
1472553230	279	1472553231
1472553231	278	1472553233
1472553233	276	1472553234
1472553234	274	1472553239
1472553239	273	1472553245
1472553245	272	1472553256
1472553256	268	1472553257
1472553257	267	1472553279
1472553279	266	1472553294
1472553294	265	1472553296
1472553296	261	1472553297
1472553297	260	1472553298
1472553298	257	1472553308
1472553308	256	1472553313
1472553313	255	1472553314
1472553314	252	1472553317
1472553317	249	1472553332
1472553332	248	1472553333
1472553333	247	1472553334
1472553334	245	1472553335
1472553335	241	1472553337
1472553337	238	1472553338
1472553338	237	1472553339
1472553339	234	1472553341
1472553341	233	1472553342
1472553342	231	1472553343
1472553343	228	1472553345
1472553345	227	1472553350
1472553350	225	1472553357
1472553357	223	1472553361
1472553361	222	1472553362
1472553362	221	1472553365
1472553365	219	1472553367
1472553367	218	1472553372
1472553372	215	1472553373
1472553373	212	1472553383
1472553383	207	1472553384
1472553384	205	1472553393
1472553393	203	1472553394
1472553394	202	1472553400
1472553400	201	1472553404
1472553404	200	1472554149
1472554149	199	1472554150
1472554150	196	1472554151
1472554151	189	1472554154
1472554154	188	1472554156
1472554156	187	1472554163
1472554163	186	1472554164
1472554164	177	1472554215
1472554215	176	1472554224
1472554224	175	1472554227
1472554227	172	1472554230
1472554230	171	1472554231
1472554231	168	1472554234
1472554234	167	1472554237
1472554237	166	1472554243
1472554243	165	1472554246
1472554246	163	1472554253
1472554253	157	1472554257
1472554257	155	1472554263
1472554263	154	1472554264
1472554264	153	1472554265
1472554265	152	1472554266
1472554266	151	1472554267
1472554267	150	1472554271
1472554271	149	1472554272
1472554272	148	1472554281
1472554281	147	1472554282
1472554282	146	1472554284
1472554284	145	1472554285
1472554285	142	1472554287
1472554287	140	1472554288
1472554288	138	1472554290
1472554290	137	1472554293
1472554293	136	1472554298
1472554298	135	1472554299
1472554299	131	1472554303
1472554303	130	1472554309
1472554309	129	1472554310
1472554310	128	1472554312
1472554312	126	1472554315
1472554315	124	1472554318
1472554318	123	1472554320
1472554320	122	1472554321
1472554321	121	1472554322
1472554322	120	1472554326
1472554326	119	1472554331
1472554331	118	1472554337
1472554337	117	1472554370
1472554370	115	1472554372
1472554372	114	1472554388
1472554388	113	1472554389
1472554389	112	1472554400
1472554400	111	1472554413
1472554413	108	1472554416
1472554416	107	1472554424
1472554424	105	1472554425
1472554425	102	1472554427
1472554427	101	1472554428
1472554428	99	1472554431
1472554431	97	1472554433
1472554433	94	1472554434
1472554434	91	1472554436
1472554436	90	1472554437
1472554437	89	1472554438
1472554438	88	1472554441
1472554441	86	1472554447
1472554447	85	1472554448
1472554448	84	1472554449
1472554449	81	1472554456
1472554456	79	1472554457
1472554457	78	1472554461
1472554461	73	1472554462
1472554462	71	1472554466
1472554466	69	1472554469
1472554469	66	1472554477
1472554477	62	1472554478
1472554478	61	1472554482
1472554482	60	1472554485
1472554485	59	1472554486
1472554486	55	1472554487
1472554487	53	1472554488
1472554488	52	1472554489
1472554489	50	1472554494
1472554494	47	1472554512
1472554512	46	1472554532
1472554532	44	1472554536
1472554536	41	1472554538
1472554538	37	1472554539
1472554539	29	1472554544
1472554544	28	1472554545
1472554545	25	1472554548
1472554548	24	1472554550
1472554550	23	1472554555
1472554555	22	1472554556
1472554556	19	1472554558
1472554558	17	1472554571
1472554571	16	1472554594
1472554594	15	1472554600
1472554600	14	1472554601
1472554601	8	1472554602
1472554602	4	1472554608
1472554608	3	1472554617
1472554617	2	1472554618
1472554618	1	1472554619
