Start auto log messages stack.	[MsgId: MMSG-10546]
Ending iteration 11.	[MsgId: MMSG-15965]
Waiting 342.0000 seconds for iteration pacing.	[MsgId: MMSG-15996]
Starting iteration 12.	[MsgId: MMSG-15968]
Error: Parameter 'pOrder_No': No more unique values for this parameter in table 'pOrder_No.dat' [unique range is 155-165]. The Vuser is aborted according to "When Out Of Values" policy.	[MsgId: MERR-13870]
End auto log messages stack.	[MsgId: MMSG-10544]

