HTTP/1.1 200 OK
Content-Type: text/xml
Content-Length: 1901
Connection: keep-alive
Date: Fri, 05 May 2017 20:26:11 GMT
Last-Modified: Mon, 05 Dec 2016 13:04:44 GMT
ETag: "40598e7146de804feaadf126c4bd90c1"
Accept-Ranges: bytes
Server: AmazonS3
Age: 37
X-Cache: Hit from cloudfront
Via: 1.1 8dae7df87719a07f42e1196c2adda1c1.cloudfront.net (CloudFront)
X-Amz-Cf-Id: M5MDn0CKRuhbLwSq_-5kdYXogl9Vt0116aaJIETufJj6-uwG4YdqIQ==

