HTTP/1.1 200 OK
Content-Type: text/xml
Content-Length: 1901
Connection: keep-alive
Date: Fri, 05 May 2017 20:26:11 GMT
Last-Modified: Mon, 05 Dec 2016 13:04:44 GMT
ETag: "40598e7146de804feaadf126c4bd90c1"
Accept-Ranges: bytes
Server: AmazonS3
Age: 5
X-Cache: Hit from cloudfront
Via: 1.1 e3228acb4b07b21eba94234a10678aed.cloudfront.net (CloudFront)
X-Amz-Cf-Id: ds_SWpvQN5N-e95J0kFehT72KflAgrY_bb37JejKGG6vCFM-V2UYYQ==

