1471428873	0	1471428886
1471428886	1	1471428887
1471428887	2	1471428889
1471428889	3	1471428901
1471428901	4	1471428915
1471428915	6	1471428920
1471428920	7	1471428931
1471428931	8	1471428945
1471428945	10	1471428950
1471428950	11	1471428961
1471428961	12	1471428964
1471428964	13	1471428975
1471428975	14	1471428990
1471428990	15	1471428991
1471428991	16	1471429005
1471429005	17	1471429006
1471429006	18	1471429021
1471429021	20	1471429024
1471429024	21	1471429025
1471429025	22	1471429935
1471429935	21	1471429937
1471429937	20	1471429962
1471429962	19	1471429964
1471429964	18	1471429975
1471429975	17	1471429981
1471429981	16	1471429984
1471429984	15	1471429987
1471429987	14	1471430001
1471430001	13	1471430003
1471430003	12	1471430004
1471430004	10	1471430017
1471430017	9	1471430024
1471430024	8	1471430025
1471430025	7	1471430026
1471430026	6	1471430034
1471430034	5	1471430043
1471430043	4	1471430045
1471430045	3	1471430054
1471430054	2	1471430155
1471430155	1	1471430174
