Ext.define("OLM.common.util.auth.TCHPPermissionCode", {
	override : 'OLM.common.util.auth.PermissionCode',
	alternateClassName: "tchpPermCode",
	inheritableStatics : {
	
	    /*Added Permission Codes for EX01*/
		limitedOrderEditPerm1 : "DOM_LIMORDED1",
		limitedOrderEditPerm2 : "DOM_LIMORDED2",
		manualOverRideRtrnbleQtyPerm : "DOM_OVRETQTY",
	    /*EX01 end*/
	    /*IN05 starts*/
		fraudHold : 'DOM_FH'
	    /*IN05 ends*/
	}
});