Start auto log messages stack - Iteration 7.	[MsgId: MMSG-10545]
vuser_end.c(52): web_url("logout") was successful, 1853 body bytes, 2574 header bytes  	[MsgId: MMSG-26386]
vuser_end.c(64): web_reg_find started  	[MsgId: MMSG-26355]
vuser_end.c(64): Registering web_reg_find was successful  	[MsgId: MMSG-26390]
vuser_end.c(67): web_url("miplogout") started  	[MsgId: MMSG-26355]
vuser_end.c(67): Notify: Next row for parameter pURL_SSO = 1 [table  = pURL_SSO].	[MsgId: MMSG-13876]
vuser_end.c(67): Notify: Parameter Substitution: parameter "pURL_SSO" =  "https://eom-mip-perf.childrensplace.com:15001"	[MsgId: MMSG-13992]
vuser_end.c(67): Redirecting "https://eom-mip-perf.childrensplace.com:15001/miplogout" (redirection depth is 0)  	[MsgId: MMSG-26694]
vuser_end.c(67): To location "https://eom-mip-perf.childrensplace.com:15001/SLOServlet?finish"  	[MsgId: MMSG-26693]
vuser_end.c(67): Error -26627: HTTP Status-Code=404 (Not Found) for "https://eom-mip-perf.childrensplace.com:15001/SLOServlet?finish", Snapshot Info [MSH 7 21]  	[MsgId: MERR-26627]
vuser_end.c(67): Error -26366: "Text=Sign Out | Manhattan Associates Inc." not found for web_reg_find, Snapshot Info [MSH 7 21]  	[MsgId: MERR-26366]
End auto log messages stack.	[MsgId: MMSG-10544]

