Start auto log messages stack.	[MsgId: MMSG-10546]
Ending iteration 8.	[MsgId: MMSG-15965]
Waiting 652.0000 seconds for iteration pacing.	[MsgId: MMSG-15996]
Starting iteration 9.	[MsgId: MMSG-15968]
Error: Parameter 'pUsername': No more unique values for this parameter in table 'pUsername.dat' [unique range is 297-304]. The Vuser is aborted according to "When Out Of Values" policy.	[MsgId: MERR-13870]
End auto log messages stack.	[MsgId: MMSG-10544]


Start auto log messages stack.	[MsgId: MMSG-10546]
Ending iteration 8.	[MsgId: MMSG-15965]
Waiting 652.0000 seconds for iteration pacing.	[MsgId: MMSG-15996]
Starting iteration 9.	[MsgId: MMSG-15968]
Error: Parameter 'pUsername': No more unique values for this parameter in table 'pUsername.dat' [unique range is 305-312]. The Vuser is aborted according to "When Out Of Values" policy.	[MsgId: MERR-13870]
End auto log messages stack.	[MsgId: MMSG-10544]


Start auto log messages stack.	[MsgId: MMSG-10546]
Ending iteration 8.	[MsgId: MMSG-15965]
Waiting 652.0000 seconds for iteration pacing.	[MsgId: MMSG-15996]
Starting iteration 9.	[MsgId: MMSG-15968]
Error: Parameter 'pUsername': No more unique values for this parameter in table 'pUsername.dat' [unique range is 313-320]. The Vuser is aborted according to "When Out Of Values" policy.	[MsgId: MERR-13870]
End auto log messages stack.	[MsgId: MMSG-10544]


Start auto log messages stack.	[MsgId: MMSG-10546]
Ending iteration 8.	[MsgId: MMSG-15965]
Waiting 652.0000 seconds for iteration pacing.	[MsgId: MMSG-15996]
Starting iteration 9.	[MsgId: MMSG-15968]
Error: Parameter 'pUsername': No more unique values for this parameter in table 'pUsername.dat' [unique range is 321-328]. The Vuser is aborted according to "When Out Of Values" policy.	[MsgId: MERR-13870]
End auto log messages stack.	[MsgId: MMSG-10544]


Start auto log messages stack.	[MsgId: MMSG-10546]
Ending iteration 8.	[MsgId: MMSG-15965]
Waiting 652.0000 seconds for iteration pacing.	[MsgId: MMSG-15996]
Starting iteration 9.	[MsgId: MMSG-15968]
Error: Parameter 'pUsername': No more unique values for this parameter in table 'pUsername.dat' [unique range is 329-336]. The Vuser is aborted according to "When Out Of Values" policy.	[MsgId: MERR-13870]
End auto log messages stack.	[MsgId: MMSG-10544]


