		12.50.1096.0                  C:\Program Files (x86)\HP\LoadRunner\bin\vugen.exe
		6.3.9600.18217 (winblue_ltsb.160124-0053)C:\WINDOWS\SYSTEM32\ntdll.dll
		6.3.9600.16384 (winblue_rtm.130821-1623)C:\WINDOWS\SYSTEM32\MSCOREE.DLL
		6.3.9600.18217 (winblue_ltsb.160124-0053)C:\WINDOWS\SYSTEM32\KERNEL32.dll
		6.3.9600.18217 (winblue_ltsb.160124-0053)C:\WINDOWS\SYSTEM32\KERNELBASE.dll
		6.3.9600.16384 (winblue_rtm.130821-1623)C:\WINDOWS\SYSTEM32\ADVAPI32.dll
		7.0.9600.17415 (winblue_r4.141028-1500)C:\WINDOWS\SYSTEM32\msvcrt.dll
		6.3.9600.16384 (winblue_rtm.130821-1623)C:\WINDOWS\SYSTEM32\sechost.dll
		6.3.9600.16384 (winblue_rtm.130821-1623)C:\WINDOWS\SYSTEM32\RPCRT4.dll
		6.3.9600.17415 (winblue_r4.141028-1500)C:\WINDOWS\SYSTEM32\SspiCli.dll
		6.3.9600.17415 (winblue_r4.141028-1500)C:\WINDOWS\SYSTEM32\CRYPTBASE.dll
		6.3.9600.18088 (winblue_ltsb.151010-0600)C:\WINDOWS\SYSTEM32\bcryptPrimitives.dll
		4.0.30319.34209 built by: FX452RTMGDRC:\Windows\Microsoft.NET\Framework\v4.0.30319\mscoreei.dll
		6.3.9600.16384 (winblue_rtm.130821-1623)C:\WINDOWS\SYSTEM32\SHLWAPI.dll
		6.3.9600.16384 (winblue_rtm.130821-1623)C:\WINDOWS\SYSTEM32\combase.dll
		6.3.9600.16384 (winblue_rtm.130821-1623)C:\WINDOWS\SYSTEM32\USER32.dll
		6.3.9600.18302 (winblue_ltsb.160409-0600)C:\WINDOWS\SYSTEM32\GDI32.dll
		6.3.9600.17415 (winblue_r4.141028-1500)C:\WINDOWS\system32\IMM32.DLL
		6.3.9600.16384 (winblue_rtm.130821-1623)C:\WINDOWS\SYSTEM32\MSCTF.dll
		4.0.30319.34209 built by: FX452RTMGDRC:\Windows\Microsoft.NET\Framework\v4.0.30319\clr.dll
		12.00.51732.34292 built by: FX452RTMGDRC:\WINDOWS\SYSTEM32\MSVCR120_CLR0400.dll
		4.0.30319.34209 built by: FX452RTMGDRC:\WINDOWS\assembly\NativeImages_v4.0.30319_32\mscorlib\d1265d6159ea876f9d63ea4c1361b587\mscorlib.ni.dll
		6.3.9600.16384 (winblue_rtm.130821-1623)C:\WINDOWS\SYSTEM32\ole32.dll
		6.3.9600.17415 (winblue_r4.141028-1500)C:\WINDOWS\SYSTEM32\kernel.appcore.dll
		6.3.9600.16384 (winblue_rtm.130821-1623)C:\WINDOWS\system32\uxtheme.dll
		6.3.9600.16384 (winblue_rtm.130821-1623)C:\Program Files (x86)\Common Files\microsoft shared\ink\tiptsf.dll
		6.3.9600.17560                C:\WINDOWS\SYSTEM32\OLEAUT32.dll
		4.0.30319.34209 built by: FX452RTMGDRC:\Windows\Microsoft.NET\Framework\v4.0.30319\clrjit.dll
		4.0.30319.36350 built by: FX452RTMLDRC:\WINDOWS\assembly\NativeImages_v4.0.30319_32\System\b1597ef26c4f5c1e8f41caf0a4501672\System.ni.dll
		4.0.30319.36337 built by: FX452RTMLDRC:\WINDOWS\assembly\NativeImages_v4.0.30319_32\System.Drawing\4576eff44b5cde226b016307de6ed626\System.Drawing.ni.dll
		4.0.30319.34250 built by: FX452RTMGDRC:\WINDOWS\assembly\NativeImages_v4.0.30319_32\System.Windows.Forms\3be852c4f6838fd010867c281ccd7b22\System.Windows.Forms.ni.dll
		4.0.30319.34209 built by: FX452RTMGDRC:\WINDOWS\assembly\NativeImages_v4.0.30319_32\System.Core\bb4fdcc23caaaa309a85f3655afb121d\System.Core.ni.dll
		6.3.9600.17415 (winblue_r4.141028-1500)C:\WINDOWS\SYSTEM32\CRYPTSP.dll
		6.3.9600.16384 (winblue_rtm.130821-1623)C:\WINDOWS\system32\rsaenh.dll
		6.3.9600.16384 (winblue_rtm.130821-1623)C:\WINDOWS\SYSTEM32\bcrypt.dll
		6.3.9600.18123 (winblue_ltsb.151108-1002)C:\WINDOWS\WinSxS\x86_microsoft.windows.gdiplus_6595b64144ccf1df_1.1.9600.18123_none_dad9a2585bcb0fd8\gdiplus.dll
		6.3.9600.18302 (winblue_ltsb.160409-0600)C:\WINDOWS\SYSTEM32\WindowsCodecs.dll
		5.82 (winblue_rtm.130821-1623)C:\WINDOWS\WinSxS\x86_microsoft.windows.common-controls_6595b64144ccf1df_5.82.9600.17810_none_7c5b6194aa0716f1\comctl32.dll
		6.10 (winblue_rtm.130821-1623)C:\WINDOWS\WinSxS\x86_microsoft.windows.common-controls_6595b64144ccf1df_6.0.9600.18006_none_a9ec6aab013aafee\comctl32.dll
		6.3.9600.16384 (winblue_rtm.130821-1623)C:\WINDOWS\system32\dwmapi.dll
		6.3.9600.16384 (winblue_rtm.130821-1623)C:\WINDOWS\SYSTEM32\DWrite.dll
		4.0.30319.34292 built by: FX452RTMGDRC:\WINDOWS\assembly\NativeImages_v4.0.30319_32\WindowsBase\d74d1bad6e3da031f5bf7a0004df7f47\WindowsBase.ni.dll
		4.0.30319.34281 built by: FX452RTMGDRC:\WINDOWS\assembly\NativeImages_v4.0.30319_32\System.Xml\84928d21e09983ca4aa6bfec55eb5344\System.Xml.ni.dll
		4.0.30319.34292 built by: FX452RTMGDRC:\WINDOWS\assembly\NativeImages_v4.0.30319_32\PresentationCore\1038154e03a910c310d9ead3512e0ab3\PresentationCore.ni.dll
		4.0.30319.34292               C:\WINDOWS\assembly\NativeImages_v4.0.30319_32\Presentatio5ae0f00f#\9f8f8590cb60764485bd55b2232da9fe\PresentationFramework.ni.dll
		1.2.10.0                      C:\WINDOWS\assembly\NativeImages_v4.0.30319_32\log4net\3fb82c18d0fb2408d2a85aab6f6caaef\log4net.ni.dll
		4.0.30319.34292 built by: FX452RTMGDRC:\WINDOWS\assembly\NativeImages_v4.0.30319_32\System.Xaml\2c15b043ed1d2bd8eed969c0dc91c4b4\System.Xaml.ni.dll
		4.0.30319.34209 built by: FX452RTMGDRC:\WINDOWS\assembly\NativeImages_v4.0.30319_32\System.Configuration\785cc036f3082ba1a94c14563442c1ad\System.Configuration.ni.dll
		4.0.30319.34209 built by: FX452RTMGDRC:\Windows\Microsoft.NET\Framework\v4.0.30319\WPF\wpfgfx_v0400.dll
		4.0.30319.33440 built by: FX45W81RTMRELC:\Windows\Microsoft.NET\Framework\v4.0.30319\WPF\PresentationNative_v0400.dll
		6.3.9600.17031 (winblue_gdr.140221-1952)C:\WINDOWS\SYSTEM32\shell32.dll
		6.3.9600.16384 (winblue_rtm.130821-1623)C:\WINDOWS\SYSTEM32\SHCORE.dll
		7.2.9600.17415 (winblue_r4.141028-1500)C:\WINDOWS\SYSTEM32\oleacc.dll
		2001.12.10530.17415 (winblue_r4.141028-1500)C:\WINDOWS\SYSTEM32\clbcatq.dll
		4.0.30319.33440 built by: FX45W81RTMRELC:\WINDOWS\assembly\NativeImages_v4.0.30319_32\Accessibility\f3c7721d3e73cf70c1cf85707a152c4e\Accessibility.ni.dll
		6.3.9600.16384 (winblue_rtm.130821-1623)C:\WINDOWS\SYSTEM32\sxs.dll
		12.50.1096.0                  C:\Program Files (x86)\HP\LoadRunner\bin\RegistryUtil.dll
		11.0.60610.1 built by: Q11REL C:\WINDOWS\SYSTEM32\mfc110.dll
		11.00.51106.1 built by: Q11RELC:\WINDOWS\SYSTEM32\MSVCR110.dll
		11.0.60610.1 built by: Q11REL C:\WINDOWS\SYSTEM32\atl110.DLL
		12.50.1096.0                  C:\Program Files (x86)\HP\LoadRunner\bin\lr_vug32.dll
		12.50.1096.0                  C:\Program Files (x86)\HP\LoadRunner\bin\inifile.dll
		12.50.855.0                   C:\Program Files (x86)\HP\LoadRunner\bin\mosifs32.dll
		12.50.855.0                   C:\Program Files (x86)\HP\LoadRunner\bin\runlogic.dll
		12.50.1096.0                  C:\Program Files (x86)\HP\LoadRunner\bin\vusercfg.dll
		12.50.855.0                   C:\Program Files (x86)\HP\LoadRunner\bin\thrdutil.dll
		12.50.855.0                   C:\Program Files (x86)\HP\LoadRunner\bin\parameng.dll
		12.50.855.0                   C:\Program Files (x86)\HP\LoadRunner\bin\dtable32.dll
		12.50.855.0                   C:\Program Files (x86)\HP\LoadRunner\bin\config.dll
		12.50.1096.0                  C:\Program Files (x86)\HP\LoadRunner\bin\MultiVuser.dll
		11.00.51106.1 built by: Q11RELC:\WINDOWS\SYSTEM32\MSVCP110.dll
		12.50.855.0                   C:\Program Files (x86)\HP\LoadRunner\bin\CrtInitiator.dll
		6.3.9600.16384 (winblue_rtm.130821-1623)C:\WINDOWS\SYSTEM32\USERENV.dll
		6.3.9600.16384 (winblue_rtm.130821-1623)C:\WINDOWS\SYSTEM32\IPHLPAPI.DLL
		12.50.855.0                   C:\Program Files (x86)\HP\LoadRunner\bin\msg_handler.dll
		12.50.855.0                   C:\Program Files (x86)\HP\LoadRunner\bin\comm_util.dll
		12.50.855.0                   C:\Program Files (x86)\HP\LoadRunner\bin\MLIB_DS.dll
		12.50.855.0                   C:\Program Files (x86)\HP\LoadRunner\bin\run_time_context.dll
		12.50.855.0                   C:\Program Files (x86)\HP\LoadRunner\bin\libxdrutil.dll
		12.50.1096.0                  C:\Program Files (x86)\HP\LoadRunner\bin\DynamicTree.dll
		9.20.0.0                      C:\Program Files (x86)\HP\LoadRunner\bin\CrtLoader_VS6.dll
		9.20.0.0                      C:\Program Files (x86)\HP\LoadRunner\bin\CrtLoader_VS8_0_50727_1433.dll
		9.20.0.0                      C:\Program Files (x86)\HP\LoadRunner\bin\CrtLoader_VS9_0_21022_8.dll
		6.3.9600.17415 (winblue_r4.141028-1500)C:\WINDOWS\SYSTEM32\profapi.dll
		6.3.9600.17415 (winblue_r4.141028-1500)C:\WINDOWS\SYSTEM32\NSI.dll
		6.3.9600.17415 (winblue_r4.141028-1500)C:\WINDOWS\SYSTEM32\WINNSI.DLL
		12.50.855.0                   C:\Program Files (x86)\HP\LoadRunner\bin\xdr.dll
		12.50.855.0                   C:\Program Files (x86)\HP\LoadRunner\bin\rtc_protocol.dll
		8.00.50727.8428               C:\WINDOWS\WinSxS\x86_microsoft.vc80.crt_1fc8b3b9a1e18e3b_8.0.50727.8428_none_d08a11e2442dc25d\MSVCR80.dll
		9.00.30729.8387               C:\WINDOWS\WinSxS\x86_microsoft.vc90.crt_1fc8b3b9a1e18e3b_9.0.30729.8387_none_5094ca96bcb6b2bb\MSVCR90.dll
		6.3.9600.17415 (winblue_r4.141028-1500)C:\WINDOWS\SYSTEM32\version.dll
		11.00.9600.16384 (winblue_rtm.130821-1623)C:\WINDOWS\SYSTEM32\urlmon.dll
		11.00.9600.16384 (winblue_rtm.130821-1623)C:\WINDOWS\SYSTEM32\iertutil.dll
		11.00.9600.16384 (winblue_rtm.130821-1623)C:\WINDOWS\SYSTEM32\WININET.dll
		6.3.9600.17415 (winblue_r4.141028-1500)C:\WINDOWS\SYSTEM32\Secur32.dll
		4.0.0.0                       C:\WINDOWS\assembly\NativeImages_v4.0.30319_32\Microsoft.Pcfd8586c#\364311d125bb5db7d17e217bf97cd125\Microsoft.Practices.Prism.ni.dll
		4.0.30319.34209 built by: FX452RTMGDRC:\WINDOWS\assembly\NativeImages_v4.0.30319_32\WindowsForm0b574481#\be87b10025335e017b4667ea6e4ca2ab\WindowsFormsIntegration.ni.dll
		6.3.9600.17415 (winblue_r4.141028-1500)C:\WINDOWS\SYSTEM32\d3d9.dll
		10.18.14.4139                 C:\WINDOWS\SYSTEM32\igdumdim32.dll
		4.0.30319.34209 built by: FX452RTMGDRC:\WINDOWS\assembly\NativeImages_v4.0.30319_32\Presentatioaec034ca#\10a9f08d455cf39bb4b12fcbcebfc4e4\PresentationFramework.Aero2.ni.dll
		4.0.30319.33440 built by: FX45W81RTMRELC:\WINDOWS\assembly\NativeImages_v4.0.30319_32\UIAutomationTypes\4ecc9a930ce584ca105857e68bad3c5f\UIAutomationTypes.ni.dll
		7.2.9600.16384 (winblue_rtm.130821-1623)C:\WINDOWS\SYSTEM32\UIAutomationCore.dll
		6.3.9600.16384 (winblue_rtm.130821-1623)C:\WINDOWS\SYSTEM32\mscms.dll
		6.3.9600.17415 (winblue_r4.141028-1500)C:\WINDOWS\SYSTEM32\WindowsCodecsExt.dll
		4.0.30319.34209 built by: FX452RTMGDRC:\WINDOWS\assembly\NativeImages_v4.0.30319_32\System.Data.Entity\0f140d62c78a2649b7976cb0b9e6fee6\System.Data.Entity.ni.dll
		12.50.249.0                   C:\Program Files (x86)\HP\LoadRunner\bin\RecentScripts.dll
		6.3.9600.17415 (winblue_r4.141028-1500)C:\WINDOWS\SYSTEM32\PSAPI.DLL
		4.0.30319.34274 built by: FX452RTMGDRC:\WINDOWS\assembly\NativeImages_v4.0.30319_32\System.Web\83360f90ff6399ba9096c5e7098e248c\System.Web.ni.dll
		4.0.30319.34274 built by: FX452RTMGDRC:\Windows\Microsoft.NET\Framework\v4.0.30319\webengine4.dll
		12.50.1096.0                  C:\Program Files (x86)\HP\LoadRunner\bin\SnapshotLoaderWrap.dll
		6.3.9600.17031 (winblue_gdr.140221-1952)C:\WINDOWS\system32\twinapi.dll
		7.00.9600.17031 (winblue_gdr.140221-1952)C:\WINDOWS\system32\propsys.dll
		6.3.9600.17415 (winblue_r4.141028-1500)C:\WINDOWS\SYSTEM32\Bcp47Langs.dll
		6.3.9600.17415 (winblue_r4.141028-1500)C:\WINDOWS\SYSTEM32\LINKINFO.dll
		12.0.135.0                    C:\Program Files (x86)\HP\LoadRunner\bin\ViewerGen.dll
		6.3.9600.16384 (winblue_rtm.130821-1623)C:\WINDOWS\SYSTEM32\SETUPAPI.dll
		6.3.9600.17415 (winblue_r4.141028-1500)C:\WINDOWS\SYSTEM32\CFGMGR32.dll
		6.3.9600.16384 (winblue_rtm.130821-1623)C:\WINDOWS\SYSTEM32\ntshrui.dll
		6.3.9600.17415 (winblue_r4.141028-1500)C:\WINDOWS\SYSTEM32\srvcli.dll
		6.3.9600.17415 (winblue_r4.141028-1500)C:\WINDOWS\SYSTEM32\cscapi.dll
		11.00.9600.18283 (winblue_ltsb_escrow.160330-1405)C:\Windows\SYSTEM32\ieframe.dll
		6.3.9600.16384 (winblue_rtm.130821-1623)C:\WINDOWS\SYSTEM32\apphelp.dll
		11.00.9600.17278 (winblue_r2.140815-1500)C:\Windows\SYSTEM32\mshtml.dll
		6.3.9600.16384 (winblue_rtm.130821-1623)C:\WINDOWS\SYSTEM32\ntmarta.dll
		12.0.135.0                    C:\Program Files (x86)\HP\LoadRunner\bin\ielpview.dll
		12.0.135.0                    C:\Program Files (x86)\HP\LoadRunner\bin\AsmHook.dll
		12.0.135.0                    C:\Program Files (x86)\HP\LoadRunner\bin\VirFileSystemMng.dll
		12.0.135.0                    C:\Program Files (x86)\HP\LoadRunner\bin\VirPrivateProfiles.dll
		6.3.9600.16384 (winblue_rtm.130821-1623)C:\WINDOWS\system32\msimtf.dll
		3.10.349.0                    C:\WINDOWS\SYSTEM32\msls31.dll
		6.3.9600.16384 (winblue_rtm.130821-1623)C:\WINDOWS\SYSTEM32\d2d1.dll
		6.3.9600.17415 (winblue_r4.141028-1500)C:\WINDOWS\SYSTEM32\dxgi.dll
		6.3.9600.17415 (winblue_r4.141028-1500)C:\WINDOWS\SYSTEM32\d3d11.dll
		6.3.9600.17415 (winblue_r4.141028-1500)C:\WINDOWS\SYSTEM32\d3d10warp.dll
		6.3.9600.17031 (winblue_gdr.140221-1952)C:\WINDOWS\SYSTEM32\powrprof.dll
		6.3.9600.16384 (winblue_rtm.130821-1623)C:\WINDOWS\SYSTEM32\MLANG.dll
		4.0.30319.34230 built by: FX452RTMGDRC:\WINDOWS\assembly\NativeImages_v4.0.30319_32\System.ServiceModel\f70b3ac3d0917970f97f3ee951879fdb\System.ServiceModel.ni.dll
		6.3.9600.16384 (winblue_rtm.130821-1623)C:\WINDOWS\SYSTEM32\rasapi32.dll
		6.3.9600.17415 (winblue_r4.141028-1500)C:\WINDOWS\SYSTEM32\rasman.dll
		6.3.9600.16384 (winblue_rtm.130821-1623)C:\WINDOWS\SYSTEM32\WS2_32.dll
		6.3.9600.17415 (winblue_r4.141028-1500)C:\WINDOWS\SYSTEM32\rtutils.dll
		6.3.9600.16384 (winblue_rtm.130821-1623)C:\WINDOWS\system32\mswsock.dll
		6.3.9600.16384 (winblue_rtm.130821-1623)C:\WINDOWS\SYSTEM32\winhttp.dll
		6.3.9600.16384 (winblue_rtm.130821-1623)C:\WINDOWS\SYSTEM32\dhcpcsvc6.DLL
		6.3.9600.16384 (winblue_rtm.130821-1623)C:\WINDOWS\SYSTEM32\dhcpcsvc.DLL
		6.3.9600.16384 (winblue_rtm.130821-1623)C:\WINDOWS\SYSTEM32\DNSAPI.dll
		6.3.9600.17415 (winblue_r4.141028-1500)C:\Windows\System32\rasadhlp.dll
		2012.3.1129.40                C:\WINDOWS\assembly\NativeImages_v4.0.30319_32\Telerik.Win3c69a4be#\f781c45408079d1c2396f77a8275c5ac\Telerik.Windows.Controls.Input.ni.dll
		2012.3.1129.40                C:\WINDOWS\assembly\NativeImages_v4.0.30319_32\Telerik.Win0593e0a6#\fde6bcc9229e0efb1e38fd77e64e0e96\Telerik.Windows.Controls.ni.dll
		4.0.30319.33440 built by: FX45W81RTMRELC:\WINDOWS\assembly\NativeImages_v4.0.30319_32\Presentatio1c9175f8#\23a648e1db657b27a7cdc8bc967b1b42\PresentationFramework.Aero.ni.dll
		2012.3.1129.40                C:\WINDOWS\assembly\NativeImages_v4.0.30319_32\Telerik.Wine8781abd#\bb2cf857434ffd16983f3e1f9e37ba9f\Telerik.Windows.Controls.GridView.ni.dll
		2012.3.1129.40                C:\WINDOWS\assembly\NativeImages_v4.0.30319_32\Telerik.Windows.Data\61dbcb31fd31128cd898cda2b998c2b4\Telerik.Windows.Data.ni.dll
		2012.3.1129.40                C:\WINDOWS\assembly\NativeImages_v4.0.30319_32\Telerik.Win8d90dfc2#\d5f09f4856a7858cbd01b7b3fc3f3056\Telerik.Windows.Controls.Navigation.ni.dll
		6.3.9600.16384 (winblue_rtm.130821-1623)C:\WINDOWS\System32\fwpuclnt.dll
		4.0.30319.33440 built by: FX45W81RTMRELC:\WINDOWS\assembly\NativeImages_v4.0.30319_32\UIAutomationProvider\86d5efe9fc231e3b8eb359ff770d42c1\UIAutomationProvider.ni.dll
		5.31.23.1231                  C:\WINDOWS\SYSTEM32\RichEd20.DLL
		6.3.9600.17415 (winblue_r4.141028-1500)C:\WINDOWS\SYSTEM32\USP10.dll
		4.0.30319.34209 built by: FX452RTMGDRC:\WINDOWS\assembly\NativeImages_v4.0.30319_32\Microsoft.Build\81f7b6f2c1c901481a3308812edcbde4\Microsoft.Build.ni.dll
		4.0.30319.33440 built by: FX45W81RTMRELC:\WINDOWS\assembly\NativeImages_v4.0.30319_32\Microsoft.B3325a29b#\a30033bf3a9ad64998ddee91213eebab\Microsoft.Build.Framework.ni.dll
		12.50.1096.0                  C:\Program Files (x86)\HP\LoadRunner\bin\coparamui.dll
		12.50.855.0                   C:\Program Files (x86)\HP\LoadRunner\bin\PathResolver.dll
		12.50.1096.0                  C:\Program Files (x86)\HP\LoadRunner\bin\paramui.dll
		6.3.9600.16384 (winblue_rtm.130821-1623)C:\WINDOWS\SYSTEM32\MPR.dll
		12.50.1096.0                  C:\Program Files (x86)\HP\LoadRunner\bin\is32.dll
		21, 00, 0, 0                  C:\Program Files (x86)\HP\LoadRunner\bin\BCGCBPRO2100110.dll
		6.3.9600.16384 (winblue_rtm.130821-1623)C:\WINDOWS\SYSTEM32\COMDLG32.dll
		6.3.9600.16384 (winblue_rtm.130821-1623)C:\WINDOWS\SYSTEM32\WINSPOOL.DRV
		6.3.9600.17415 (winblue_r4.141028-1500)C:\WINDOWS\SYSTEM32\ODBC32.dll
		6.3.9600.16384 (winblue_rtm.130821-1623)C:\WINDOWS\SYSTEM32\WINMM.dll
		6.3.9600.16384 (winblue_rtm.130821-1623)C:\WINDOWS\SYSTEM32\WINMMBASE.dll
		6.3.9600.17415 (winblue_r4.141028-1500)C:\WINDOWS\SYSTEM32\DEVOBJ.dll
		6.3.9600.17415 (winblue_r4.141028-1500)C:\WINDOWS\SYSTEM32\msimg32.dll
		12.50.855.0                   C:\Program Files (x86)\HP\LoadRunner\bin\paramlr.dll
		12.50.855.0                   C:\Program Files (x86)\HP\LoadRunner\bin\paramtbl.dll
		12.50.855.0                   C:\Program Files (x86)\HP\LoadRunner\bin\mmdtable.dll
		12.50.855.0                   C:\Program Files (x86)\HP\LoadRunner\bin\libmemmap.dll
		12.50.855.0                   C:\Program Files (x86)\HP\LoadRunner\bin\mmdbigtable.dll
		12.50.855.0                   C:\Program Files (x86)\HP\LoadRunner\bin\paramcst.dll
		12.50.855.0                   C:\Program Files (x86)\HP\LoadRunner\bin\paramunq.dll
		12.50.855.0                   C:\Program Files (x86)\HP\LoadRunner\bin\paramfnc.dll
		12.50.855.0                   C:\Program Files (x86)\HP\LoadRunner\bin\paramss.dll
		12.50.855.0                   C:\Program Files (x86)\HP\LoadRunner\bin\paramdte.dll
		12.50.855.0                   C:\Program Files (x86)\HP\LoadRunner\bin\paramvar.dll
		12.50.855.0                   C:\Program Files (x86)\HP\LoadRunner\bin\paramrnd.dll
		4.0.30319.33440 built by: FX45W81RTMRELC:\WINDOWS\assembly\NativeImages_v4.0.30319_32\System.Xml.Linq\774dd287a886a120b6301ef280bc52eb\System.Xml.Linq.ni.dll
		12.50.1096.0                  C:\Program Files (x86)\HP\LoadRunner\bin\ArchiveManager.dll
		12.50.1096.0                  C:\Program Files (x86)\HP\LoadRunner\bin\runlogicview.ocx
		4.0.30319.34230 built by: FX452RTMGDRC:\WINDOWS\assembly\NativeImages_v4.0.30319_32\SMDiagnostics\e60858ec091744d1ac949f3ce380b402\SMDiagnostics.ni.dll
		4.0.30319.34230 built by: FX452RTMGDRC:\WINDOWS\assembly\NativeImages_v4.0.30319_32\System.Servd1dec626#\92aa478589e80ee6379b7821dd172b38\System.ServiceModel.Internals.ni.dll
		4.0.30319.34230 built by: FX452RTMGDRC:\WINDOWS\assembly\NativeImages_v4.0.30319_32\System.Runteb92aa12#\f692a2b1633456a5a4b16860986c6ac4\System.Runtime.Serialization.ni.dll
		4.0.30319.34209 built by: FX452RTMGDRC:\WINDOWS\assembly\NativeImages_v4.0.30319_32\System.Data\4c8fdac1a6d53f9e7cc0bdc694fc6fa1\System.Data.ni.dll
		4.0.30319.34209 built by: FX452RTMGDRC:\WINDOWS\Microsoft.Net\assembly\GAC_32\System.Data\v4.0_4.0.0.0__b77a5c561934e089\System.Data.dll
		6.3.9600.16431 (winblue_gdr.131015-2301)C:\WINDOWS\SYSTEM32\CRYPT32.dll
		6.3.9600.17415 (winblue_r4.141028-1500)C:\WINDOWS\SYSTEM32\MSASN1.dll
		6.3.9600.17415 (winblue_r4.141028-1500)C:\WINDOWS\SYSTEM32\WINTRUST.dll
		4.0.30319.33440 built by: FX45W81RTMRELC:\Windows\Microsoft.NET\Framework\v4.0.30319\mscorsecimpl.dll
		6.3.9600.17415 (winblue_r4.141028-1500)C:\WINDOWS\SYSTEM32\imagehlp.dll
		6.3.9600.16384 (winblue_rtm.130821-1623)C:\WINDOWS\SYSTEM32\ncrypt.dll
		6.3.9600.16384 (winblue_rtm.130821-1623)C:\WINDOWS\SYSTEM32\NTASN1.dll
		6.3.9600.16384 (winblue_rtm.130821-1623)C:\WINDOWS\SYSTEM32\gpapi.dll
		6.3.9600.17415 (winblue_r4.141028-1500)C:\WINDOWS\SYSTEM32\cryptnet.dll
		6.3.9600.16384 (winblue_rtm.130821-1623)C:\WINDOWS\SYSTEM32\WLDAP32.dll
		12.50.1096.0                  C:\Program Files (x86)\HP\LoadRunner\bin\ParamUINotification.dll
		4.0.30319.34209 built by: FX452RTMGDRC:\WINDOWS\assembly\NativeImages_v4.0.30319_32\System.Transactions\662218aaa0408c53ec7a8f81937047fa\System.Transactions.ni.dll
		4.0.30319.34209 built by: FX452RTMGDRC:\WINDOWS\Microsoft.Net\assembly\GAC_32\System.Transactions\v4.0_4.0.0.0__b77a5c561934e089\System.Transactions.dll
		4.0.8854.1                    C:\Program Files (x86)\HP\LoadRunner\bin\sqlceme40.dll
		4.0.30319.33440 built by: FX45W81RTMRELC:\WINDOWS\assembly\NativeImages_v4.0.30319_32\System.Ente96d83b35#\6fbf7a732be9dc1f8d8abf738fce0cf7\System.EnterpriseServices.ni.dll
		4.0.30319.33440 built by: FX45W81RTMRELC:\WINDOWS\assembly\NativeImages_v4.0.30319_32\System.Ente96d83b35#\6fbf7a732be9dc1f8d8abf738fce0cf7\System.EnterpriseServices.Wrapper.dll
		4.0.30319.33440 built by: FX45W81RTMRELC:\WINDOWS\Microsoft.Net\assembly\GAC_32\System.EnterpriseServices\v4.0_4.0.0.0__b03f5f7f11d50a3a\System.EnterpriseServices.Wrapper.dll
		4.0.30319.34209 built by: FX452RTMGDRC:\WINDOWS\assembly\NativeImages_v4.0.30319_32\System.Numerics\de2a832558f95db343e443c365bd3575\System.Numerics.ni.dll
		4.0.30319.33440 built by: FX45W81RTMRELC:\WINDOWS\assembly\NativeImages_v4.0.30319_32\System.Data86569bbf#\ce84f0b85cba7048238ce897782015dd\System.Data.OracleClient.ni.dll
		4.0.30319.33440 built by: FX45W81RTMRELC:\WINDOWS\Microsoft.Net\assembly\GAC_32\System.Data.OracleClient\v4.0_4.0.0.0__b77a5c561934e089\System.Data.OracleClient.dll
		12.50.1096.0                  C:\Program Files (x86)\HP\LoadRunner\bin\HP.LR.VuGen.ScriptHandlerComWrapper.dll
		12.50.1096.0                  C:\Program Files (x86)\HP\LoadRunner\bin\lrscripthandler.DLL
		12.50.1096.0                  C:\Program Files (x86)\HP\LoadRunner\bin\webscripthandler.DLL
		12.50.1096.0                  C:\Program Files (x86)\HP\LoadRunner\bin\WebStepClsShared.dll
		12.50.1096.0                  C:\Program Files (x86)\HP\LoadRunner\bin\WebStepClsDesign.dll
		3, 6, 0, 0                    C:\Program Files (x86)\HP\LoadRunner\bin\icuuc36.dll
		12.50.1096.0                  C:\Program Files (x86)\HP\LoadRunner\bin\mshtmtr.dll
		12.50.1096.0                  C:\Program Files (x86)\HP\LoadRunner\bin\DynWininet.dll
		12.50.855.0                   C:\Program Files (x86)\HP\LoadRunner\bin\wraplwcrypto.dll
		3, 6, 0, 0                    C:\Program Files (x86)\HP\LoadRunner\bin\icudt36.dll
		12.50.1096.0                  C:\Program Files (x86)\HP\LoadRunner\bin\LrXmlScriptHandler.DLL
		12.50.1096.0                  C:\Program Files (x86)\HP\LoadRunner\bin\ReplayBinaryUtils32.dll
		6.3.9600.16384 (winblue_rtm.130821-1623)C:\WINDOWS\SYSTEM32\WSOCK32.dll
		12.50.1096.0                  C:\Program Files (x86)\HP\LoadRunner\bin\websteps_scripthandler.DLL
		12.50.1096.0                  C:\Program Files (x86)\HP\LoadRunner\bin\base_scripthandler.dll
		6.3.9600.17415 (winblue_r4.141028-1500)C:\WINDOWS\SYSTEM32\RICHED32.DLL
		12.50.1096.0                  C:\Program Files (x86)\HP\LoadRunner\bin\WebUIRes.DLL
		12.50.1096.0                  C:\Program Files (x86)\HP\LoadRunner\bin\webservice_scripthandler.DLL
		12.50.1096.0                  C:\Program Files (x86)\HP\LoadRunner\bin\WSDLSDK.dll
		12.50.1096.0                  C:\Program Files (x86)\HP\LoadRunner\bin\ServiceManagementLight.dll
		12.50.1096.0                  C:\Program Files (x86)\HP\LoadRunner\bin\SoapRecordFilter.dll
		12.50.1096.0                  C:\Program Files (x86)\HP\LoadRunner\bin\WebServicesSDK.dll
		12.50.855.0                   C:\Program Files (x86)\HP\LoadRunner\bin\XmlParserInterface.dll
		12.50.1096.0                  C:\Program Files (x86)\HP\LoadRunner\bin\LrJni.dll
		12.50.1096.0                  C:\Program Files (x86)\HP\LoadRunner\bin\WSDLParser.dll
		12.50.1096.0                  C:\Program Files (x86)\HP\LoadRunner\bin\WsCommonLogger.dll
		12.50.1096.0                  C:\Program Files (x86)\HP\LoadRunner\bin\ConfigurationUtil.dll
		12.50.1096.0                  C:\Program Files (x86)\HP\LoadRunner\bin\HttpUtils.dll
		2, 7, 0                       C:\Program Files (x86)\HP\LoadRunner\bin\xerces-c_2_7.dll
		1, 10, 0, 0                   C:\Program Files (x86)\HP\LoadRunner\bin\Xalan-C_1_10Mic.dll
		12.50.855.0                   C:\Program Files (x86)\HP\LoadRunner\bin\mic_regex.dll
		12.50.1096.0                  C:\Program Files (x86)\HP\LoadRunner\bin\MicXMLDiffTool.dll
		12.50.1096.0                  C:\Program Files (x86)\HP\LoadRunner\bin\WSDLToolkits.dll
		                              C:\Program Files (x86)\HP\LoadRunner\bin\XalanMessages_1_10.DLL
		3, 6, 0, 0                    C:\Program Files (x86)\HP\LoadRunner\bin\icuin36.dll
		12.50.1096.0                  C:\Program Files (x86)\HP\LoadRunner\bin\soap_scripthandler.DLL
		4.0.30319.33440               C:\WINDOWS\assembly\NativeImages_v4.0.30319_32\Microsoft.CSharp\ec9e00ecc30b1c7f91f5f77b75efbc2a\Microsoft.CSharp.ni.dll
		4.0.30319.33440               C:\WINDOWS\assembly\NativeImages_v4.0.30319_32\System.Dynamic\aa18bc34d62a667731ee0987f71945ad\System.Dynamic.ni.dll
		6.3.9600.17415 (winblue_r4.141028-1500)C:\WINDOWS\SYSTEM32\WtsApi32.dll
		6.3.9600.17415 (winblue_r4.141028-1500)C:\WINDOWS\SYSTEM32\WINSTA.dll
		4.0.30319.34209 built by: FX452RTMGDRC:\Windows\Microsoft.NET\Framework\v4.0.30319\WPF\PenIMC.dll
		6.3.9600.16384 (winblue_rtm.130821-1623)C:\WINDOWS\System32\wisp.dll
		6.3.9600.17670 (winblue_r8.150129-1500)C:\WINDOWS\SYSTEM32\atlthunk.dll
		6.3.9600.17415 (winblue_r4.141028-1500)C:\Program Files (x86)\Common Files\Microsoft Shared\Ink\tpcps.dll
		6.3.9600.16384 (winblue_rtm.130821-1623)C:\WINDOWS\system32\msctfui.dll
		6.3.9600.16384 (winblue_rtm.130821-1623)C:\WINDOWS\system32\explorerframe.dll
		6.3.9600.16384 (winblue_rtm.130821-1623)C:\WINDOWS\system32\DUser.dll
		6.3.9600.16384 (winblue_rtm.130821-1623)C:\WINDOWS\system32\DUI70.dll
		10.18.14.4139                 C:\WINDOWS\SYSTEM32\igdusc32.dll
		6.3.9600.17415 (winblue_r4.141028-1500)C:\WINDOWS\SYSTEM32\avrt.dll
		6.0.3.17227                   C:\WINDOWS\assembly\NativeImages_v4.0.30319_32\Newtonsoft.Json\3ffcbce872b14b79dcf39fe118c31934\Newtonsoft.Json.ni.dll
		12.50.1096.0                  C:\Program Files (x86)\HP\LoadRunner\bin\HP.LR.VuGen.LrVugHelper.dll
		12.50.1096.0                  C:\Program Files (x86)\HP\LoadRunner\bin\TextContainer.dll
		12.50.1096.0                  C:\Program Files (x86)\HP\LoadRunner\bin\vugen_record_api.dll
		1.9.1.8                       C:\WINDOWS\assembly\NativeImages_v4.0.30319_32\Ionic.Zip\83a647f02aa6d5a1842e88f33908c95c\Ionic.Zip.ni.dll
		12.50.1096.0                  C:\Program Files (x86)\HP\LoadRunner\bin\insp_gen.dll
		12.50.1096.0                  C:\Program Files (x86)\HP\LoadRunner\bin\inspdll.dll
		12.50.1096.0                  C:\Program Files (x86)\HP\LoadRunner\bin\pefile.dll
		12.50.1096.0                  C:\Program Files (x86)\HP\LoadRunner\bin\api_inspector.dll
		12.50.855.0                   C:\Program Files (x86)\HP\LoadRunner\bin\trpfnc32.dll
		12.50.1096.0                  C:\Program Files (x86)\HP\LoadRunner\bin\script_language_helper.dll
		12.50.1096.0                  C:\Program Files (x86)\HP\LoadRunner\bin\api_scrinfo.dll
		12.50.1096.0                  C:\Program Files (x86)\HP\LoadRunner\bin\HTTPSnapshotsWrapper.dll
		12.50.855.0                   C:\Program Files (x86)\HP\LoadRunner\bin\wrapzlib.dll
		12.50.1096.0                  C:\Program Files (x86)\HP\LoadRunner\bin\Api_Filter_Helper.dll
		12.50.1096.0                  C:\Program Files (x86)\HP\LoadRunner\bin\unknown_only_helper.dll
		12.50.1096.0                  C:\Program Files (x86)\HP\LoadRunner\bin\type_info_pool.dll
		12.50.1096.0                  C:\Program Files (x86)\HP\LoadRunner\bin\CodeGenerationAPI.dll
		12.50.1096.0                  C:\Program Files (x86)\HP\LoadRunner\bin\LRSDKUtilities.dll
		12.50.1096.0                  C:\Program Files (x86)\HP\LoadRunner\bin\InternalSDKUtils.dll
		12.50.1096.0                  C:\Program Files (x86)\HP\LoadRunner\bin\VuGenCallback.dll
		6.3.9600.16384 (winblue_rtm.130821-1623)C:\Windows\SYSTEM32\cryptui.dll
		12.50.1096.0                  C:\Program Files (x86)\HP\LoadRunner\bin\lrc_basic_filters.dll
		12.50.1096.0                  C:\Program Files (x86)\HP\LoadRunner\bin\api_event_parser.dll
		12.50.1096.0                  C:\Program Files (x86)\HP\LoadRunner\bin\traffic_filter.dll
		                              C:\Program Files (x86)\HP\LoadRunner\bin\pcre-8.10.dll
		12.50.1096.0                  C:\Program Files (x86)\HP\LoadRunner\bin\api_sock_filter.dll
		12.50.855.0                   C:\Program Files (x86)\HP\LoadRunner\bin\ipng_utils.dll
		12.50.1096.0                  C:\Program Files (x86)\HP\LoadRunner\bin\WebDataFormatsCodeGen.dll
		12.50.1096.0                  C:\Program Files (x86)\HP\LoadRunner\bin\DataFormatsEngine.dll
		12.50.1096.0                  C:\Program Files (x86)\HP\LoadRunner\bin\WebSnapshotsCommon.dll
		12.50.1096.0                  C:\Program Files (x86)\HP\LoadRunner\bin\WebSocketFilter.dll
		12.50.1096.0                  C:\Program Files (x86)\HP\LoadRunner\bin\VnpLog.dll
		12.50.1096.0                  C:\Program Files (x86)\HP\LoadRunner\bin\VnpUtils.dll
		12.50.1096.0                  C:\Program Files (x86)\HP\LoadRunner\bin\WebHTMLCodeGen.dll
		12.50.1096.0                  C:\Program Files (x86)\HP\LoadRunner\bin\WebRecorder.dll
		12.50.1096.0                  C:\Program Files (x86)\HP\LoadRunner\bin\LrwiWebInfra.dll
		1.0.2d                        C:\Program Files (x86)\HP\LoadRunner\bin\libeay32_lt.dll
		1.0.2d                        C:\Program Files (x86)\HP\LoadRunner\bin\ssleay32_lt.dll
		12.50.1096.0                  C:\Program Files (x86)\HP\LoadRunner\bin\WebCorrelation.dll
		12.50.855.0                   C:\Program Files (x86)\HP\LoadRunner\bin\jconv_str.dll
		                              C:\Program Files (x86)\HP\LoadRunner\bin\duktape.dll
		12.50.855.0                   C:\Program Files (x86)\HP\LoadRunner\bin\http_auth.dll
		12.50.855.0                   C:\Program Files (x86)\HP\LoadRunner\bin\LRUN50.dll
		12.50.1096.0                  C:\Program Files (x86)\HP\LoadRunner\bin\LrXml.dll
		12.50.1096.0                  C:\Program Files (x86)\HP\LoadRunner\bin\LrJson.dll
		12.50.855.0                   C:\Program Files (x86)\HP\LoadRunner\bin\trans.dll
		12.50.855.0                   C:\Program Files (x86)\HP\LoadRunner\bin\merc_uuid.dll
		12.50.855.0                   C:\Program Files (x86)\HP\LoadRunner\bin\faserver.dll
		12.50.855.0                   C:\Program Files (x86)\HP\LoadRunner\bin\wrapicu.dll
		12.50.1096.0                  C:\Program Files (x86)\HP\LoadRunner\bin\VnpReport.dll
		12.50.855.0                   C:\Program Files (x86)\HP\LoadRunner\bin\JsonParser.dll
		12.50.855.0                   C:\Program Files (x86)\HP\LoadRunner\bin\lr_exp.dll
		12.50.855.0                   C:\Program Files (x86)\HP\LoadRunner\bin\trans_server.dll
		12.50.855.0                   C:\Program Files (x86)\HP\LoadRunner\bin\libdatatypes.dll
		12.50.855.0                   C:\Program Files (x86)\HP\LoadRunner\bin\data_types_ifs.dll
		12.50.855.0                   C:\Program Files (x86)\HP\LoadRunner\bin\timediff_ext.dll
		12.50.855.0                   C:\Program Files (x86)\HP\LoadRunner\bin\jrequestor_srv.dll
		12.50.855.0                   C:\Program Files (x86)\HP\LoadRunner\bin\dc_requests.dll
		12.50.1096.0                  C:\Program Files (x86)\HP\LoadRunner\bin\WebConvertFromFormattedFilter.dll
		12.50.1096.0                  C:\Program Files (x86)\HP\LoadRunner\bin\WebConvertFromFormattedPostFilter.dll
		12.50.1096.0                  C:\Program Files (x86)\HP\LoadRunner\bin\WebExtractServerNameFilter.dll
		12.50.1096.0                  C:\Program Files (x86)\HP\LoadRunner\bin\lrc_com_filters.dll
		12.50.1096.0                  C:\Program Files (x86)\HP\LoadRunner\bin\WebRemoveLongBodyFilter.DLL
		12.50.1096.0                  C:\Program Files (x86)\HP\LoadRunner\bin\lrc_code_gen_filter.dll
