Transaction Name,Flow Name,Packet List Name,Transaction Duration (seconds),Network Time (seconds) ,Throughput Up (KB),Throughput Down (KB),Number of Requests,Errors,Analysis Score (Desktop) ,Analysis Score (Mobile) ,Transaction HTML Report Name
vuser_init,,,2.2,2.2,20.7,2523.8,32,0,70.5,71.0,report0.html
Action_iteration_1,,,13.9,11.2,10.2,206.1,21,1,69.0,71.0,report1.html
vuser_end,,,0.3,0.2,6.0,470.8,3,0,98.5,98.0,report2.html