Start auto log messages stack - Iteration 1.	[MsgId: MMSG-10545]
Action.c(304): Notify: Parameter Substitution: parameter "pURL" =  "http://eom-ca-perf.tcphq.tcpcorp.local.com:30000"	[MsgId: MMSG-13992]
Action.c(304): Notify: Parameter Substitution: parameter "pURL" =  "http://eom-ca-perf.tcphq.tcpcorp.local.com:30000"	[MsgId: MMSG-13992]
Action.c(304): Downloading resource "http://eom-ca-perf.tcphq.tcpcorp.local.com:30000/lps/resources/themes/icons/mablue/arrow_last_disabled.gif" (specified by argument number 13)  	[MsgId: MMSG-26577]
Action.c(304): Downloading resource "http://eom-ca-perf.tcphq.tcpcorp.local.com:30000/lps/resources/themes/icons/mablue/arrow_right_disabled.gif" (specified by argument number 16)  	[MsgId: MMSG-26577]
Action.c(304): Notify: Saving Parameter "cSelectedRow = 437767".	[MsgId: MMSG-13798]
Action.c(304): Notify: Saving Parameter "cDistributorID = 00404016".	[MsgId: MMSG-13798]
Action.c(304): Notify: Saving Parameter "cPickListID = 0000000031".	[MsgId: MMSG-13798]
Action.c(304): Notify: Saving Parameter "cPageAllRowsKey = 437767#:#".	[MsgId: MMSG-13798]
Action.c(304): Notify: Saving Parameter "cViewState_02 = -2747190200269916174:-9042799941658221279".	[MsgId: MMSG-13798]
Action.c(304): Error -26366: "Text=Shraddha Jaiswal" not found for web_reg_find  	[MsgId: MERR-26366]
End auto log messages stack.	[MsgId: MMSG-10544]


