pOrder_Number,pReasonCode,pInput_Qty,pTextCheck
51000500,,1,S411
51000501,,1,S412
51000502,,1,S413
51000503,,1,S414
51000504,,1,S415
51000505,,1,S416
51000506,,1,S417
51000507,,1,S418
51000510,,1,S421
51000511,,1,S422
51000512,,1,S423
51000513,,1,S424
51000514,,1,S425
51000515,,1,S426
51000516,,1,S427
51000517,,1,S428
51000520,,1,S431
51000521,,1,S432
51000522,,1,S433
51000523,,1,S434
51000524,,1,S435
51000525,,1,S436
51000526,,1,S437
51000527,,1,S438
51000530,,1,S411
51000531,,1,S412
51000532,,1,S413
51000533,,1,S414
51000534,,1,S415
51000535,,1,S416
51000536,,1,S417
51000537,,1,S418
51000540,,1,S421
51000541,,1,S422
51000542,,1,S423
51000543,,1,S424
51000544,,1,S425
51000545,,1,S426
51000546,,1,S427
51000547,,1,S428
51000550,,1,S431
51000551,,1,S432
51000552,,1,S433
51000553,,1,S434
51000554,,1,S435
51000555,,1,S436
51000556,,1,S437
51000557,,1,S438
51000560,,1,S411
51000561,,1,S412
51000562,,1,S413
51000563,,1,S414
51000564,,1,S415
51000565,,1,S416
51000566,,1,S417
51000567,,1,S418
51000570,,1,S421
51000571,,1,S422
51000572,,1,S423
51000573,,1,S424
51000574,,1,S425
51000575,,1,S426
51000576,,1,S427
51000577,,1,S428
51000580,,1,S431
51000581,,1,S432
51000582,,1,S433
51000583,,1,S434
51000584,,1,S435
51000585,,1,S436
51000586,,1,S437
51000587,,1,S438
51000590,,1,S411
51000591,,1,S412
51000592,,1,S413
51000593,,1,S414
51000594,,1,S415
51000595,,1,S416
51000596,,1,S417
51000597,,1,S418
51000600,,1,S421
51000601,,1,S422
51000602,,1,S423
51000603,,1,S424
51000604,,1,S425
51000605,,1,S426
51000606,,1,S427
51000607,,1,S428
51000610,,1,S431
51000611,,1,S432
51000612,,1,S433
51000613,,1,S434
51000614,,1,S435
51000615,,1,S436
51000616,,1,S437
51000617,,1,S438
51000620,,1,S411
51000621,,1,S412
51000622,,1,S413
51000623,,1,S414
51000624,,1,S415
51000625,,1,S416
51000626,,1,S417
51000627,,1,S418
51000630,,1,S421
51000631,,1,S422
51000632,,1,S423
51000633,,1,S424
51000634,,1,S425
51000635,,1,S426
51000636,,1,S427
51000637,,1,S428
51000640,,1,S431
51000641,,1,S432
51000642,,1,S433
51000643,,1,S434
51000644,,1,S435
51000645,,1,S436
51000646,,1,S437
51000647,,1,S438
51000650,,1,S411
51000651,,1,S412
51000652,,1,S413
51000653,,1,S414
51000654,,1,S415
51000655,,1,S416
51000656,,1,S417
51000657,,1,S418
51000660,,1,S421
51000661,,1,S422
51000662,,1,S423
51000663,,1,S424
51000664,,1,S425
51000665,,1,S426
51000666,,1,S427
51000667,,1,S428
51000670,,1,S431
51000671,,1,S432
51000672,,1,S433
51000673,,1,S434
51000674,,1,S435
51000675,,1,S436
51000676,,1,S437
51000677,,1,S438
51000680,,1,S411
51000681,,1,S412
51000682,,1,S413
51000683,,1,S414
51000684,,1,S415
51000685,,1,S416
51000686,,1,S417
51000687,,1,S418
51000690,,1,S421
51000691,,1,S422
51000692,,1,S423
51000693,,1,S424
51000694,,1,S425
51000695,,1,S426
51000696,,1,S427
51000697,,1,S428
51000700,,1,S431
51000701,,1,S432
51000702,,1,S433
51000703,,1,S434
51000704,,1,S435
51000705,,1,S436
51000706,,1,S437
51000707,,1,S438
51000710,,1,S411
51000711,,1,S412
51000712,,1,S413
51000713,,1,S414
51000714,,1,S415
51000715,,1,S416
51000716,,1,S417
51000717,,1,S418
51000720,,1,S421
51000721,,1,S422
51000722,,1,S423
51000723,,1,S424
51000724,,1,S425
51000725,,1,S426
51000726,,1,S427
51000727,,1,S428
51000730,,1,S431
51000731,,1,S432
51000732,,1,S433
51000733,,1,S434
51000734,,1,S435
51000735,,1,S436
51000736,,1,S437
51000737,,1,S438
51000740,,1,S411
51000741,,1,S412
51000742,,1,S413
51000743,,1,S414
51000744,,1,S415
51000745,,1,S416
51000746,,1,S417
51000747,,1,S418
51000750,,1,S421
51000751,,1,S422
51000752,,1,S423
51000753,,1,S424
51000754,,1,S425
51000755,,1,S426
51000756,,1,S427
51000757,,1,S428
51000760,,1,S431
51000761,,1,S432
51000762,,1,S433
51000763,,1,S434
51000764,,1,S435
51000765,,1,S436
51000766,,1,S437
51000767,,1,S438
51000770,,1,S411
51000771,,1,S412
51000772,,1,S413
51000773,,1,S414
51000774,,1,S415
51000775,,1,S416
51000776,,1,S417
51000777,,1,S418
51000780,,1,S421
51000781,,1,S422
51000782,,1,S423
51000783,,1,S424
51000784,,1,S425
51000785,,1,S426
51000786,,1,S427
51000787,,1,S428
51000790,,1,S431
51000791,,1,S432
51000792,,1,S433
51000793,,1,S434
51000794,,1,S435
51000795,,1,S436
51000796,,1,S437
51000797,,1,S438
