"{"events":{"event":[{"transactionId":"c98fc47a-3c90-402c-800c-a9d078bbc575","eventName":"PROCE"
"ED TO REVIEW","screenId":280010,"userName":"User001","logCategory":"button","logLevel":4,"even"
"tTimeStamp":"3/22/2017 5:12:35 AM","additionalInfo":"Proceed to review for RMA: 000065275"}]}}"
