"{\"customerOrder\":{\"orderNumber\":101148061,\"discountDetails\":{\"discountDetail\":{\"extDi"
"scountDetailId\":\"101148061_1\",\"extDiscountId\":\"$Off\",\"discountType\":\"Appeasement\",\""
"discountAmount\":\"4\",\"deleted\":false,\"objectReasonCode\":{\"reasonCode\":\"LO\",\"reasonC"
"odeDescription\":\"\",\"comments\":\"\",\"isSystemDefined\":\"\"},\"parentEntityLineNumber\":\""
"\",\"discountValue\":\"4\",\"appliedBy\":\"\",\"appliedDate\":\"\"}},\"lastUpdatedDTTM\":\"201"
"5-09-30 14:20:06.7\"}}"
