Start auto log messages stack - Iteration 1.	[MsgId: MMSG-10545]
Action.c(300): Notify: Parameter Substitution: parameter "cPK_7" =  "437825"	[MsgId: MMSG-13992]
Action.c(300): Notify: Parameter Substitution: parameter "cLandingPage_DistributionID_8" =  "00404075"	[MsgId: MMSG-13992]
Action.c(300): Notify: Parameter Substitution: parameter "cOrderStatusCode_7" =  "Open"	[MsgId: MMSG-13992]
Action.c(300): Notify: Parameter Substitution: parameter "cPK_8" =  "437827"	[MsgId: MMSG-13992]
Action.c(300): Notify: Parameter Substitution: parameter "cLandingPage_DistributionID_9" =  "00404077"	[MsgId: MMSG-13992]
Action.c(300): Notify: Parameter Substitution: parameter "cOrderStatusCode_8" =  "Open"	[MsgId: MMSG-13992]
Action.c(300): Notify: Parameter Substitution: parameter "cPK_9" =  "437838"	[MsgId: MMSG-13992]
Action.c(300): Notify: Parameter Substitution: parameter "cLandingPage_DistributionID_10" =  "00404074"	[MsgId: MMSG-13992]
Action.c(300): Notify: Parameter Substitution: parameter "cOrderStatusCode_9" =  "Open"	[MsgId: MMSG-13992]
Action.c(300): Notify: Parameter Substitution: parameter "cPK_10" =  "437823"	[MsgId: MMSG-13992]
Action.c(300): Notify: Parameter Substitution: parameter "cLandingPage_DistributionID_11" =  "00404072"	[MsgId: MMSG-13992]
Action.c(300): Notify: Parameter Substitution: parameter "cOrderStatusCode_10" =  "Open"	[MsgId: MMSG-13992]
Action.c(300): Notify: Parameter Substitution: parameter "cDataTable" =  "1471534094660"	[MsgId: MMSG-13992]
Action.c(300): Notify: Parameter Substitution: parameter "cViewState_01" =  "-6444081732357715496:-7007744369325264657"	[MsgId: MMSG-13992]
Action.c(300): Notify: Saving Parameter "cViewState_02 = -6444081732357715496:-4106193885704613994".	[MsgId: MMSG-13798]
Action.c(300): Error -26612: HTTP Status-Code=500 (Internal Server Error) for "http://eom-ca-perf.tcphq.tcpcorp.local.com:30000/eem/instorepickup/InStorePickupSolution.xhtml", Snapshot Info [MSH 1 14]  	[MsgId: MERR-26612]
Action.c(300): Error -26377: No match found for the requested parameter "cSelectedRow". Either the specified boundaries were not found in the response or the matched text is longer than current max html parameter size of 9999 bytes. The total length of the response is 2859 bytes. You can use web_set_max_html_param_len to increase the max parameter size., Snapshot Info [MSH 1 14]  	[MsgId: MERR-26377]
End auto log messages stack.	[MsgId: MMSG-10544]

Start auto log messages stack - Iteration 1.	[MsgId: MMSG-10545]
Action.c(300): Notify: Saving Parameter "cSelectedRow = ".	[MsgId: MMSG-13798]
Action.c(300): Error -26377: No match found for the requested parameter "cDistributorID". Either the specified boundaries were not found in the response or the matched text is longer than current max html parameter size of 9999 bytes. The total length of the response is 2859 bytes. You can use web_set_max_html_param_len to increase the max parameter size., Snapshot Info [MSH 1 14]  	[MsgId: MERR-26377]
End auto log messages stack.	[MsgId: MMSG-10544]

Start auto log messages stack - Iteration 1.	[MsgId: MMSG-10545]
Action.c(300): Notify: Saving Parameter "cDistributorID = ".	[MsgId: MMSG-13798]
Action.c(300): Error -26377: No match found for the requested parameter "cPickListID". Either the specified boundaries were not found in the response or the matched text is longer than current max html parameter size of 9999 bytes. The total length of the response is 2859 bytes. You can use web_set_max_html_param_len to increase the max parameter size., Snapshot Info [MSH 1 14]  	[MsgId: MERR-26377]
End auto log messages stack.	[MsgId: MMSG-10544]

