"{\n"
"\"customerOrderSearchCriteria\":{\n"
"\t\"sortingCriterion\":{\n"
"\t\"sortField\":\"createdDTTM\",\n"
"\t\"sortDirection\":\"DESC\"\n"
"\t},\n"
"\t\n"
"\t\"entityType\":\"ALL\",\n"
"\t\n"
"\t\"customerInfo\":{\n"
"\t\t\"customerFirstName\":\"S1\",\n"
"\t\t\"customerLastName\":\"K1\",\n"
"\t\t\"customerEmail\":\"S1.K1@test.com\",\n"
"\t\t}\n"
"\t}\n"
"\n"
"}"
