HTTP/1.1 200 OK
Content-Type: text/xml
Content-Length: 1876
Connection: keep-alive
Date: Sun, 28 Feb 2016 05:31:46 GMT
Last-Modified: Tue, 06 Oct 2015 07:07:14 GMT
ETag: "da8b7b6f1283ec2dca0923b3d7e300f0"
Accept-Ranges: bytes
Server: AmazonS3
Age: 74568
X-Cache: Hit from cloudfront
Via: 1.1 892274180a1f0a3d35e7191f596791d4.cloudfront.net (CloudFront)
X-Amz-Cf-Id: FtO1GmMTkWQt3WwgnXBCPp3j_zWIrbyXZPY4ujVpVzyflUSeO7JGgQ==

