791
{"PostLoginObject":{"metadata":{"actionCodes":"","memos":""},"selectionList":{"selection":{"collection":[{"key":{"value":123},"value":"0001"},{"key":{"value":124},"value":"0002"},{"key":{"value":161},"value":"0005"},{"key":{"value":229},"value":"0006"},{"key":{"value":224},"value":"0007"},{"key":{"value":230},"value":"0009"},{"key":{"value":207},"value":"0015"},{"key":{"value":310},"value":"0017"},{"key":{"value":321},"value":"0069"},{"key":{"value":208},"value":"0600"},{"key":{"value":228},"value":"0683"},{"key":{"value":232},"value":"0715"},{"key":{"value":181},"value":"0731"},{"key":{"value":209},"value":"0735"},{"key":{"value":322},"value":"0738"},{"key":{"value":236},"value":"0746"},{"key":{"value":235},"value":"0752"},{"key":{"value":210},"value":"0766"},{"key":{"value":238},"value":"0769"},{"key":{"value":237},"value":"0771"},{"key":{"value":239},"value":1029},{"key":{"value":231},"value":1041},{"key":{"value":213},"value":1202},{"key":{"value":233},"value":1213},{"key":{"value":212},"value":1217},{"key":{"value":240},"value":1237},{"key":{"value":241},"value":1240},{"key":{"value":234},"value":1248},{"key":{"value":211},"value":1250},{"key":{"value":242},"value":1256},{"key":{"value":261},"value":1258},{"key":{"value":214},"value":1263},{"key":{"value":250},"value":1267},{"key":{"value":215},"value":1287},{"key":{"value":265},"value":1291},{"key":{"value":268},"value":1298},{"key":{"value":323},"value":1321},{"key":{"value":270},"value":1403},{"key":{"value":256},"value":1441},{"key":{"value":255},"value":1444},{"key":{"value":260},"value":1445},{"key":{"value":252},"value":1449},{"key":{"value":245},"value":1454},{"key":{"value":217},"value":1460},{"key":{"value":246},"value":1463},{"key":{"value":259},"value":1471},{"key":{"value":269},"value":1472},{"key":{"value":218},"value":1479},{"key":{"value":258},"value":1482},{"key":{"value":264},"value":1483}]},"total":107},"success":true,"viewId":0}}
0

