95c
{"id":0,"caption":"(undefined)","solutions":[{"id":41,"name":"mda-njitldomapp01.tcphq.tcpcorp.local.com:20000","caption":"mda-njitldomapp01.tcphq.tcpcorp.local.com:20000","description":"mda running at http://njitldomapp01.tcphq.tcpcorp.local.com:20000","host":"njitldomapp01.tcphq.tcpcorp.local.com","port":20000,"https":false,"enableSearch":false,"searchConfigured":true,"enableNotifications":false,"numActiveWorkspaces":1,"numOpenWorkspaces":5,"numActiveWindows":32,"numOpenWindows":32,"deploymentId":101,"apps":[{"id":1008,"name":"Master Data Administration","caption":"Master Data Administration","shortName":"mda","isActive":true},{"id":130,"name":"Report Management","caption":"Report Management","shortName":"mrf","isActive":true}],"solutionXrefs":[]},{"id":42,"name":"ca-njitldomapp01.tcphq.tcpcorp.local.com:30000","caption":"ca-njitldomapp01.tcphq.tcpcorp.local.com:30000","description":"ca running at http://njitldomapp01.tcphq.tcpcorp.local.com:30000","host":"njitldomapp01.tcphq.tcpcorp.local.com","port":30000,"https":false,"enableSearch":false,"searchConfigured":true,"enableNotifications":false,"numActiveWorkspaces":1,"numOpenWorkspaces":5,"numActiveWindows":32,"numOpenWindows":32,"deploymentId":102,"apps":[{"id":128,"name":"Store Inventory & Fulfillment","caption":"Store Inventory & Fulfillment","shortName":"SIF","isActive":true},{"id":28,"name":"Distributed Order Management","caption":"Distributed Order Management","shortName":"DOM","isActive":true},{"id":29,"name":"Dispatch Kiosk","caption":"Dispatch Kiosk","shortName":"KIOSK","isActive":true},{"id":44,"name":"Common Business Object","caption":"Common Business Object","shortName":"CBO","isActive":true},{"id":12,"name":"Logistics Gateway","caption":"Logistics Gateway","shortName":"LG","isActive":true},{"id":132,"name":"Proof of Delivery","caption":"Proof of Delivery","shortName":"POD","isActive":true},{"id":24,"name":"Transportation LifeCycle Management","caption":"Transportation LifeCycle Management","shortName":"TPE","isActive":true},{"id":130,"name":"Report Management","caption":"Report Management","shortName":"mrf","isActive":true},{"id":40,"name":"Extended Enterprise Management","caption":"Extended Enterprise Management","shortName":"eem","isActive":true},{"id":32,"name":"Reverse Logistics Management","caption":"Reverse Logistics Management","shortName":"RLM","isActive":true}],"solutionXrefs":[]}]}
0

