Transaction Name,Flow Name,Packet List Name,Transaction Duration (seconds),Network Time (seconds) ,Throughput Up (KB),Throughput Down (KB),Number of Requests,Errors,Analysis Score (Desktop) ,Analysis Score (Mobile) ,Transaction HTML Report Name
vuser_init,,,2.0,1.9,18.4,2523.4,31,0,69.5,71.0,report0.html
Action_iteration_1,,,2.9,0.0,0.0,0.0,0,0,N\A (no HTTP traffic),N\A (no HTTP traffic),report1.html
vuser_end,,,0.3,0.3,6.9,472.5,5,0,98.0,97.5,report2.html