e95
{"LabelList":{"labels":{"collection":[{"caption":"Switch to Mouse Mode","name":"switchToMouse"},{"caption":"Too many windows open. Close one or more windows before attempting to open new windows.","name":"maxWindows"},{"caption":"Notifications","name":"notifications"},{"caption":"User Preferences","name":"userPreference"},{"caption":"Add","name":"addPortlet"},{"caption":"Switching to Mouse Mode will require a refresh. Do you want to continue?","name":"switchToMouseModeConfirmation"},{"caption":"Add default Tile","name":"addDefaultTile"},{"caption":"Fax","name":"fax"},{"caption":"Are you sure you want to sign out of all solutions?","name":"signOutQ"},{"caption":"Dashboard","name":"dashboard"},{"caption":"No records found","name":"noRecordsFound"},{"caption":"Tile Single Click","name":"singleTileClick"},{"caption":"Mouse Mode","name":"mouseMode"},{"caption":"Refresh","name":"refresh"},{"caption":"Choose Background","name":"chooseBackground"},{"caption":"Search","name":"search"},{"caption":"Address","name":"address"},{"caption":"WebTop Help","name":"webtopHelp"},{"caption":"No notifications found","name":"noNotificationsFound"},{"caption":"Auto Arrange Tiles","name":"autoArrangeTiles"},{"caption":"Menu","name":"menu"},{"caption":"Portlet","name":"portlet"},{"caption":"Group by","name":"group"},{"caption":"Touch Mode","name":"touchMode"},{"caption":"Menu Item","name":"menuItem"},{"caption":"Company Theme Selector","name":"themeSelector"},{"caption":"Choose","name":"choose"},{"caption":"Too many windows open for this workspace. Close one or more windows before attempting to open new windows.","name":"maxWindowsWorkspace"},{"caption":"Switching to Touch Mode will require a refresh. Do you want to continue?","name":"switchToTouchConfirmation"},{"caption":"Open","name":"open"},{"caption":"Wide","name":"wide"},{"caption":"Pin as Tile","name":"pinAsTile"},{"caption":"Tab","name":"tab"},{"caption":"Add to Quick Menu","name":"addToQuickMenu"},{"caption":"Tile","name":"tile"},{"caption":"Regions","name":"regions"},{"caption":"Cancel","name":"cancel"},{"caption":"Home","name":"home"},{"caption":"Add Tile","name":"addTile"},{"caption":"Workspaces","name":"workspaces"},{"caption":"Apply","name":"apply"},{"caption":"Add","name":"add"},{"caption":"Switch to Touch Mode","name":"switchToTouch"},{"caption":"Full Screen","name":"fullScreen"},{"caption":"Add","name":"addWorkspace"},{"caption":"Show","name":"show"},{"caption":"Set as Default?","name":"setAsDefault"},{"caption":"Email","name":"email"},{"caption":"Extra Large","name":"extraLarge"},{"caption":"Business Unit","name":"businessUnit"},{"caption":"Show All Results..","name":"showAllResults"},{"caption":"The selected theme will be applied to all users of your company. Applying this theme will also refresh the page and any unsaved work will be lost. Are you sure you want to apply the selected theme?","name":"themeMsg"},{"caption":"Available Solutions","name":"availableSolutions"},{"caption":"Maximized","name":"maximized"},{"caption":"Phone","name":"phone"},{"caption":"Name","name":"name"},{"caption":"Size","name":"size"},{"caption":"Add Portlet as Tile","name":"addPortletAsTile"},{"caption":"Close","name":"close"},{"caption":"Quick Menu","name":"quickMenu"},{"caption":"Remove","name":"remove"},{"caption":"Warehouse","name":"warehouse"},{"caption":"Solution Selector","name":"solutionSelector"},{"caption":"Ok","name":"ok"},{"caption":"Sign out","name":"signOut"},{"caption":"Business Units","name":"businessUnits"},{"caption":"Customize Menu","name":"customizeMenu"},{"caption":"Open Windows","name":"openWindows"},{"caption":"Show All","name":"showAll"},{"caption":"Help","name":"help"},{"caption":"Search..","name":"emptySearchText"}]}}}
0

