"{\n"
"   "availabilityRequest":{\n"
"      "viewName":"US ROPIS",\n"
"      "availabilityCriteria":{\n"
"         "itemNames":{\n"
"            "itemName":[\n"
"               "1050845016"\n"
"            ]\n"
"         },\n"
"         "facilityNames":{\n"
"            "facilityName":[\n"
"               "0783",\n"
"               "1461",\n"
"               "1717",\n"
"               "1227",\n"
"               "1930",\n"
"               "4370",\n"
"               "4044",\n"
"               "4151",\n"
"               "4059",\n"
"               "1751",\n"
"               "1733",\n"
"               "1815",\n"
"               "1711",\n"
"               "1480",\n"
"               "1977",\n"
"               "1644",\n"
"               "1922",\n"
"               "1911",\n"
"               "1475",\n"
"               "1857",\n"
"               "4206",\n"
"               "4119",\n"
"               "1812",\n"
"               "4159",\n"
"               "0964"\n"
"            ]\n"
"         }\n"
"      }\n"
"   }\n"
"}"
