pFirst_Name,pLast_Name,pTelephone,pEmail
S171,K171,9759153052,S171.K171@test.com
S172,K172,9480206575,S172.K172@test.com
S173,K173,9899403593,S173.K173@test.com
S174,K174,9497023979,S174.K174@test.com
S175,K175,9288365915,S175.K175@test.com
S176,K176,9806780472,S176.K176@test.com
S177,K177,9480437696,S177.K177@test.com
S178,K178,9719849579,S178.K178@test.com
S179,K179,9106778576,S179.K179@test.com
S180,K180,9139030485,S180.K180@test.com
S181,K181,9262886276,S181.K181@test.com
S182,K182,9378611681,S182.K182@test.com
S183,K183,9847142160,S183.K183@test.com
S184,K184,9069272493,S184.K184@test.com
S185,K185,9760170783,S185.K185@test.com
S186,K186,9488375292,S186.K186@test.com
S187,K187,9670350819,S187.K187@test.com
S188,K188,9503384832,S188.K188@test.com
S189,K189,9581276434,S189.K189@test.com
S190,K190,9821256472,S190.K190@test.com
S191,K191,9237687865,S191.K191@test.com
S192,K192,9156734302,S192.K192@test.com
S193,K193,9806979926,S193.K193@test.com
S194,K194,9956220177,S194.K194@test.com
S195,K195,9255673699,S195.K195@test.com
S196,K196,9293700060,S196.K196@test.com
S197,K197,9503812665,S197.K197@test.com
S198,K198,9390650320,S198.K198@test.com
S199,K199,9890785433,S199.K199@test.com
S200,K200,9421042901,S200.K200@test.com
S201,K201,9595335920,S201.K201@test.com
S202,K202,9403453375,S202.K202@test.com
S203,K203,9947389501,S203.K203@test.com
S204,K204,9219822526,S204.K204@test.com
S205,K205,9194211556,S205.K205@test.com
S206,K206,9714653163,S206.K206@test.com
S207,K207,9636890489,S207.K207@test.com
S208,K208,9419433974,S208.K208@test.com
S209,K209,9395711348,S209.K209@test.com
S210,K210,9299629365,S210.K210@test.com
S211,K211,9070123459,S211.K211@test.com
S212,K212,9354453322,S212.K212@test.com
S213,K213,9737784123,S213.K213@test.com
S214,K214,9666317752,S214.K214@test.com
S215,K215,9571980364,S215.K215@test.com
S216,K216,9859969656,S216.K216@test.com
S217,K217,9768310353,S217.K217@test.com
S218,K218,9352748932,S218.K218@test.com
S219,K219,9403169235,S219.K219@test.com
S220,K220,9318592024,S220.K220@test.com
S221,K221,9372486011,S221.K221@test.com
S222,K222,9841383829,S222.K222@test.com
S223,K223,9073162612,S223.K223@test.com
S224,K224,9479965307,S224.K224@test.com
S225,K225,9310511251,S225.K225@test.com
S226,K226,9025788686,S226.K226@test.com
S227,K227,9664841254,S227.K227@test.com
S228,K228,9368443762,S228.K228@test.com
S229,K229,9903434568,S229.K229@test.com
S230,K230,9263633108,S230.K230@test.com
S231,K231,9735398759,S231.K231@test.com
S232,K232,9447113079,S232.K232@test.com
S233,K233,9506020834,S233.K233@test.com
S234,K234,9639754993,S234.K234@test.com
S235,K235,9310022285,S235.K235@test.com
S236,K236,9993666177,S236.K236@test.com
S237,K237,9888228579,S237.K237@test.com
S238,K238,9331729016,S238.K238@test.com
S239,K239,9102204987,S239.K239@test.com
S240,K240,9509010264,S240.K240@test.com
S241,K241,9988638407,S241.K241@test.com
S242,K242,9042539165,S242.K242@test.com
S243,K243,9116076394,S243.K243@test.com
S244,K244,9002011029,S244.K244@test.com
S245,K245,9450382054,S245.K245@test.com
S246,K246,9859721038,S246.K246@test.com
S247,K247,9600729072,S247.K247@test.com
S248,K248,9089872711,S248.K248@test.com
S249,K249,9714400978,S249.K249@test.com
S250,K250,9353248869,S250.K250@test.com
S251,K251,9020926471,S251.K251@test.com
S252,K252,9714989585,S252.K252@test.com
S253,K253,9931407834,S253.K253@test.com
S254,K254,9970187276,S254.K254@test.com
S255,K255,9659347263,S255.K255@test.com
S256,K256,9295792423,S256.K256@test.com
S257,K257,9385392424,S257.K257@test.com
S258,K258,9754405503,S258.K258@test.com
S259,K259,9505780562,S259.K259@test.com
S260,K260,9156450187,S260.K260@test.com
S261,K261,9489257484,S261.K261@test.com
S262,K262,9580073894,S262.K262@test.com
S263,K263,9741541438,S263.K263@test.com
S264,K264,9112474272,S264.K264@test.com
S265,K265,9380732772,S265.K265@test.com
S266,K266,9363443834,S266.K266@test.com
S267,K267,9304276661,S267.K267@test.com
S268,K268,9305104556,S268.K268@test.com
S269,K269,9954190502,S269.K269@test.com
S270,K270,9728033513,S270.K270@test.com
S271,K271,9076554240,S271.K271@test.com
S272,K272,9679234398,S272.K272@test.com
S273,K273,9624789899,S273.K273@test.com
S274,K274,9612370884,S274.K274@test.com
S275,K275,9137153224,S275.K275@test.com
S276,K276,9256863266,S276.K276@test.com
S277,K277,9634858968,S277.K277@test.com
S278,K278,9163350202,S278.K278@test.com
S279,K279,9363443997,S279.K279@test.com
S280,K280,9812914968,S280.K280@test.com
S281,K281,9027309708,S281.K281@test.com
S282,K282,9568560782,S282.K282@test.com
S283,K283,9176924383,S283.K283@test.com
S284,K284,9379179655,S284.K284@test.com
S285,K285,9426130056,S285.K285@test.com
S286,K286,9999643081,S286.K286@test.com
S287,K287,9758524960,S287.K287@test.com
S288,K288,9973033821,S288.K288@test.com
S289,K289,9306426764,S289.K289@test.com
S290,K290,9116940780,S290.K290@test.com
