1472638390	0	1472638408
1472638408	5	1472638417
1472638417	10	1472638427
1472638427	15	1472638437
1472638437	20	1472638447
1472638447	25	1472638457
1472638457	30	1472638478
1472638478	35	1472638487
1472638487	40	1472638497
1472638497	45	1472638507
1472638507	50	1472638528
1472638528	54	1472638538
1472638538	58	1472638539
1472638539	59	1472638547
1472638547	62	1472638548
1472638548	63	1472638558
1472638558	68	1472638567
1472638567	70	1472638568
1472638568	71	1472638578
1472638578	76	1472638587
1472638587	78	1472638588
1472638588	79	1472638598
1472638598	84	1472638607
1472638607	87	1472638608
1472638608	88	1472638618
1472638618	92	1472638619
1472638619	96	1472638627
1472638627	100	1472638628
1472638628	101	1472638637
1472638637	104	1472638650
1472638650	110	1472638652
1472638652	111	1472638653
1472638653	112	1472638657
1472638657	117	1472638662
1472638662	122	1472638667
1472638667	125	1472638671
1472638671	130	1472638680
1472638680	135	1472638690
1472638690	140	1472638700
1472638700	145	1472638710
1472638710	150	1472638720
1472638720	155	1472638730
1472638730	160	1472638752
1472638752	165	1472638761
1472638761	170	1472638770
1472638770	175	1472638780
1472638780	180	1472638790
1472638790	185	1472638800
1472638800	190	1472638810
1472638810	195	1472638820
1472638820	200	1472638860
1472638860	203	1472638867
1472638867	209	1472638868
1472638868	210	1472638877
1472638877	215	1472638887
1472638887	220	1472638897
1472638897	222	1472638899
1472638899	225	1472638907
1472638907	229	1472638908
1472638908	230	1472638917
1472638917	235	1472638930
1472638930	237	1472638939
1472638939	245	1472638947
1472638947	247	1472638948
1472638948	250	1472638969
1472638969	255	1472638977
1472638977	260	1472638988
1472638988	262	1472638989
1472638989	265	1472638997
1472638997	270	1472639008
1472639008	271	1472639010
1472639010	275	1472639017
1472639017	280	1472639040
1472639040	285	1472639048
1472639048	286	1472639051
1472639051	289	1472639052
1472639052	290	1472639057
1472639057	295	1472639067
1472639067	300	1472639090
1472639090	305	1472639097
1472639097	310	1472639107
1472639107	315	1472639117
1472639117	320	1472639127
1472639127	321	1472639128
1472639128	322	1472639129
1472639129	325	1472639137
1472639137	330	1472639147
1472639147	335	1472639157
1472639157	340	1472639167
1472639167	343	1472639168
1472639168	345	1472639177
1472639177	350	1472641001
1472641001	349	1472641005
1472641005	347	1472641006
1472641006	346	1472641011
1472641011	345	1472641012
1472641012	344	1472641015
1472641015	343	1472641016
1472641016	340	1472641018
1472641018	339	1472641020
1472641020	337	1472641023
1472641023	336	1472641024
1472641024	334	1472641025
1472641025	333	1472641033
1472641033	332	1472641036
1472641036	330	1472641037
1472641037	329	1472641038
1472641038	328	1472641043
1472641043	326	1472641044
1472641044	325	1472641045
1472641045	324	1472641053
1472641053	323	1472641054
1472641054	322	1472641055
1472641055	319	1472641058
1472641058	318	1472641059
1472641059	317	1472641063
1472641063	315	1472641071
1472641071	314	1472641073
1472641073	313	1472641078
1472641078	309	1472641085
1472641085	307	1472641086
1472641086	305	1472641089
1472641089	302	1472641094
1472641094	300	1472641100
1472641100	299	1472641101
1472641101	297	1472641108
1472641108	294	1472641111
1472641111	292	1472641114
1472641114	290	1472641116
1472641116	289	1472641118
1472641118	287	1472641120
1472641120	286	1472641123
1472641123	285	1472641124
1472641124	284	1472641126
1472641126	283	1472641131
1472641131	282	1472641133
1472641133	281	1472641135
1472641135	280	1472641138
1472641138	278	1472641143
1472641143	277	1472641144
1472641144	276	1472641145
1472641145	275	1472641146
1472641146	274	1472641147
1472641147	272	1472641154
1472641154	270	1472641165
1472641165	268	1472641172
1472641172	267	1472641175
1472641175	265	1472641176
1472641176	264	1472641177
1472641177	263	1472641179
1472641179	261	1472641184
1472641184	260	1472641185
1472641185	257	1472641189
1472641189	256	1472641193
1472641193	254	1472641194
1472641194	253	1472641199
1472641199	251	1472641200
1472641200	250	1472641218
1472641218	248	1472641219
1472641219	247	1472641220
1472641220	246	1472641227
1472641227	243	1472641229
1472641229	242	1472641231
1472641231	241	1472641233
1472641233	239	1472641235
1472641235	238	1472641244
1472641244	234	1472641245
1472641245	233	1472641250
1472641250	232	1472641252
1472641252	229	1472641253
1472641253	228	1472641259
1472641259	227	1472641264
1472641264	225	1472641265
1472641265	224	1472641266
1472641266	223	1472641267
1472641267	222	1472641269
1472641269	221	1472641271
1472641271	220	1472641272
1472641272	219	1472641274
1472641274	218	1472641280
1472641280	217	1472641281
1472641281	216	1472641283
1472641283	213	1472641284
1472641284	212	1472641285
1472641285	211	1472641291
1472641291	210	1472641294
1472641294	209	1472641295
1472641295	207	1472641299
1472641299	206	1472641302
1472641302	205	1472641304
1472641304	204	1472641305
1472641305	202	1472641319
1472641319	200	1472642126
1472642126	199	1472642127
1472642127	198	1472642150
1472642150	196	1472642157
1472642157	195	1472642162
1472642162	192	1472642165
1472642165	191	1472642168
1472642168	190	1472642169
1472642169	189	1472642171
1472642171	188	1472642174
1472642174	186	1472642176
1472642176	184	1472642177
1472642177	183	1472642189
1472642189	182	1472642190
1472642190	181	1472642191
1472642191	180	1472642195
1472642195	179	1472642196
1472642196	178	1472642200
1472642200	175	1472642208
1472642208	173	1472642209
1472642209	172	1472642211
1472642211	171	1472642212
1472642212	170	1472642214
1472642214	169	1472642215
1472642215	168	1472642216
1472642216	167	1472642217
1472642217	166	1472642218
1472642218	165	1472642220
1472642220	163	1472642226
1472642226	161	1472642227
1472642227	160	1472642229
1472642229	158	1472642230
1472642230	157	1472642233
1472642233	156	1472642234
1472642234	155	1472642235
1472642235	154	1472642237
1472642237	153	1472642238
1472642238	151	1472642240
1472642240	150	1472642243
1472642243	149	1472642244
1472642244	148	1472642313
1472642313	147	1472642339
1472642339	144	1472642342
1472642342	143	1472642347
1472642347	138	1472642348
1472642348	136	1472642349
1472642349	134	1472642350
1472642350	133	1472642351
1472642351	131	1472642352
1472642352	130	1472642353
1472642353	129	1472642354
1472642354	126	1472642355
1472642355	125	1472642356
1472642356	122	1472642360
1472642360	121	1472642361
1472642361	120	1472642362
1472642362	117	1472642363
1472642363	115	1472642369
1472642369	112	1472642370
1472642370	110	1472642372
1472642372	109	1472642378
1472642378	106	1472642379
1472642379	102	1472642380
1472642380	101	1472642382
1472642382	100	1472642383
1472642383	99	1472642389
1472642389	96	1472642390
1472642390	94	1472642391
1472642391	93	1472642394
1472642394	92	1472642398
1472642398	89	1472642399
1472642399	88	1472642400
1472642400	87	1472642405
1472642405	85	1472642407
1472642407	82	1472642409
1472642409	78	1472642411
1472642411	70	1472642412
1472642412	68	1472642413
1472642413	65	1472642420
1472642420	57	1472642426
1472642426	55	1472642428
1472642428	53	1472642435
1472642435	51	1472642438
1472642438	50	1472642441
1472642441	48	1472642447
1472642447	45	1472642452
1472642452	41	1472642455
1472642455	40	1472642456
1472642456	36	1472642457
1472642457	35	1472642461
1472642461	33	1472642462
1472642462	32	1472642464
1472642464	30	1472642472
1472642472	29	1472642473
1472642473	28	1472642474
1472642474	26	1472642476
1472642476	25	1472642482
1472642482	24	1472642483
1472642483	23	1472642485
1472642485	22	1472642486
1472642486	21	1472642488
1472642488	20	1472642492
1472642492	19	1472642493
1472642493	18	1472642494
1472642494	15	1472642501
1472642501	13	1472642503
1472642503	11	1472642505
1472642505	10	1472642514
1472642514	7	1472642515
1472642515	5	1472642521
1472642521	4	1472642522
1472642522	2	1472642523
1472642523	1	1472642524
