Events Files:
-------------
	10.4.0.141(5769.96KB) - Succeeded
	10.2.15.81(1349.39KB) - Succeeded
	10.2.15.80(3410.42KB) - Succeeded
	10.18.1.167(6141.62KB) - Succeeded
Logs Files:
-------------
	10.4.0.141(66880.00KB) - Succeeded
	10.2.15.81(10530.75KB) - Succeeded
	10.18.1.167(17436.28KB) - Succeeded
	10.2.15.80(59684.38KB) - Succeeded
