122b
{"LabelList":{"labels":{"collection":[{"caption":"ADD ITEM","name":"addItemUC"},{"caption":"Unit Height","name":"unitHeight"},{"caption":"Pick up at store","name":"pickUpAtStore"},{"caption":"Protection Level","name":"protectionLevel"},{"caption":"BUSINESS UNIT","name":"businessUnit"},{"caption":"COLOR","name":"colorUC"},{"caption":"ITEM DESCRIPTION","name":"itemDescription"},{"caption":"Product Type","name":"productType"},{"caption":"Not available","name":"notAvailable"},{"caption":"No data to display","name":"noDataToDisplay"},{"caption":"Size Description","name":"sizeDescription"},{"caption":"Unit price","name":"unitPrice"},{"caption":"Color Suffix","name":"colorSuffix"},{"caption":"DELIVERY OPTIONS","name":"deliveryOptionsUC"},{"caption":"Hazardous Material Code","name":"hazardousMaterialCode"},{"caption":"Keyword Search","name":"keyWordSearch"},{"caption":"Item List","name":"itemList"},{"caption":"NMFC Freight Class","name":"nmfcFreightClass"},{"caption":"SKU","name":"sku"},{"caption":"Item Search","name":"itemSearch"},{"caption":"Ship to address","name":"shipToAddress"},{"caption":"RECEIVING PARAMETERS","name":"receivingParameters"},{"caption":"ITEM COMPONENTS","name":"itemComponents"},{"caption":"Change store","name":"changeStoreSC"},{"caption":"Exp. Date Required","name":"expDateRequired"},{"caption":"Unit Width","name":"unitWidth"},{"caption":"Offer details","name":"offerDetails"},{"caption":"GTIN","name":"gtin"},{"caption":"STORE UNIT PRICE","name":"storeUnitPriceUC"},{"caption":"Max. Days before Exp.","name":"maxDaysBeforeExp"},{"caption":"Min. Days before Exp.","name":"minDaysBeforeExp"},{"caption":"No promotions or discounts on this item.","name":"noPromotionsOrDiscountsOnThisItem"},{"caption":"Commodity Code","name":"commodityCode"},{"caption":"Available in future","name":"availableInFuture"},{"caption":"Style Suffix","name":"styleSuffix"},{"caption":"Unit Length","name":"unitLength"},{"caption":"GO","name":"go"},{"caption":"Size","name":"size"},{"caption":"Channel Type","name":"channelType"},{"caption":"APPLIED","name":"appliedUC"},{"caption":"Select a store","name":"selectAStore"},{"caption":"Quantity UOM","name":"quantityUom"},{"caption":"SKU","name":"skuUC"},{"caption":"Season","name":"season"},{"caption":"Unit Weight","name":"unitWeight"},{"caption":"View Description","name":"viewDescription"},{"caption":"Commodity Level","name":"commodityLevel"},{"caption":"No shipping methods available on this item.","name":"noShippingMethodsAvailableOnThisItem"},{"caption":"SELECTED STORE","name":"selectedStoreUC"},{"caption":"Season Year","name":"seasonYear"},{"caption":"Other delivery options","name":"otherDeliveryOptions"},{"caption":"PRICE SORT","name":"priceSortUC"},{"caption":"View items","name":"viewItems"},{"caption":"SHIPPING METHODS","name":"shippingMethodsUC"},{"caption":"SELECT","name":"selectUC"},{"caption":"Available","name":"available"},{"caption":"ITEM SUPPORTS","name":"itemSupports"},{"caption":"SIZE","name":"sizeUC"},{"caption":"Address not selected","name":"addressNotSelected"},{"caption":"Unit Volume","name":"unitVolume"},{"caption":"CHECKOUT","name":"checkoutUC"},{"caption":"UNIT PRICE","name":"unitPriceUC"},{"caption":"PRODUCT CLASS","name":"productClassUC"},{"caption":"Base UOM","name":"baseUom"},{"caption":"Hide Description","name":"hideDescription"},{"caption":"Ship to store","name":"shipToStore"},{"caption":"Description","name":"description"},{"caption":"SEARCH","name":"searchUC"},{"caption":"CHECKOUT","name":"checkout"},{"caption":"Quality Level","name":"qualityLevel"},{"caption":"SPECIFICATION","name":"specification"},{"caption":"- All -","name":"all"},{"caption":"PRICE","name":"priceUC"},{"caption":"Dimension UOM","name":"dimensionUom"},{"caption":"GO","name":"goUC"},{"caption":"PROMOTIONS & DISCOUNTS","name":"promotionsDiscountsUC"},{"caption":"Item Details","name":"itemDetails"},{"caption":"Variable Weight Item","name":"variableWeightItem"},{"caption":"Color","name":"color"},{"caption":"Color Description","name":"colorDescription"},{"caption":"Bar Code","name":"barCode"},{"caption":"STYLE","name":"styleUC"},{"caption":"Style","name":"style"},{"caption":"Click to reset","name":"clickToReset"},{"caption":"ITEM SEARCH","name":"itemSearchUC"},{"caption":"Qty.","name":"qty"},{"caption":"Second Dimension","name":"secondDimension"},{"caption":"Price","name":"price"},{"caption":"NOT APPLICABLE","name":"notApplicable"},{"caption":"Catch Weight Item","name":"catchWeightItem"},{"caption":"ADD ITEM & PROCEED","name":"addItemProceedUC"},{"caption":"Bundle Quantity","name":"bundleQuantity"},{"caption":"Product class","name":"productClass"}]}}}
0

