HTTP/1.1 200 OK
Content-Type: text/xml
Content-Length: 1901
Connection: keep-alive
Date: Fri, 05 May 2017 20:26:11 GMT
Last-Modified: Mon, 05 Dec 2016 13:04:44 GMT
ETag: "40598e7146de804feaadf126c4bd90c1"
Accept-Ranges: bytes
Server: AmazonS3
Age: 46
X-Cache: Hit from cloudfront
Via: 1.1 369b7b53ff47d9af0628945b11e4d56e.cloudfront.net (CloudFront)
X-Amz-Cf-Id: T46B9v7DaxEJ0uXyeSM1GdVhTUjSQYyjmXk0y22HK2yoAH6veDUqLg==

