"{\n"
"   "availabilityRequest":{\n"
"      "viewName":"US ROPIS",\n"
"      "availabilityCriteria":{\n"
"         "itemNames":{\n"
"            "itemName":[\n"
"               "1050845028"\n"
"            ]\n"
"         },\n"
"         "facilityNames":{\n"
"            "facilityName":[\n"
"               "4301",\n"
"               "1650",\n"
"               "4218",\n"
"               "4326",\n"
"               "4246",\n"
"               "0975",\n"
"               "0907",\n"
"               "0839",\n"
"               "4365",\n"
"               "4327",\n"
"               "4355",\n"
"               "4338",\n"
"               "4359",\n"
"               "4364",\n"
"               "4165",\n"
"               "1457",\n"
"               "4117",\n"
"               "4161",\n"
"               "1034",\n"
"               "4143",\n"
"               "4206",\n"
"               "1708",\n"
"               "4156",\n"
"               "1266",\n"
"               "4095"\n"
"            ]\n"
"         }\n"
"      }\n"
"   }\n"
"}"
