Start auto log messages stack - Iteration 20.	[MsgId: MMSG-10545]
vuser_end.c(50): Downloading resource "https://eom-mip-perf.childrensplace.com:15001/images/loading.gif" (specified by argument number 10)  	[MsgId: MMSG-26577]
vuser_end.c(50): web_url("logout") was successful, 1853 body bytes, 2552 header bytes  	[MsgId: MMSG-26386]
vuser_end.c(62): web_url("miplogout") started  	[MsgId: MMSG-26355]
vuser_end.c(62): Notify: Next row for parameter pURL_SSO = 1 [table  = pURL_SSO].	[MsgId: MMSG-13876]
vuser_end.c(62): Notify: Parameter Substitution: parameter "pURL_SSO" =  "https://eom-mip-perf.childrensplace.com:15001"	[MsgId: MMSG-13992]
vuser_end.c(62): Redirecting "https://eom-mip-perf.childrensplace.com:15001/miplogout" (redirection depth is 0)  	[MsgId: MMSG-26694]
vuser_end.c(62): To location "https://eom-mip-perf.childrensplace.com:15001/SLOServlet?finish"  	[MsgId: MMSG-26693]
vuser_end.c(62): Error -26627: HTTP Status-Code=404 (Not Found) for "https://eom-mip-perf.childrensplace.com:15001/SLOServlet?finish", Snapshot Info [MSH 20 15]  	[MsgId: MERR-26627]
End auto log messages stack.	[MsgId: MMSG-10544]

